sim/output_buffer/dump.vcd
$version Generated by VerilatedVcd $end
$timescale 1ps $end
 $scope module $rootio $end
  $var wire 1 " clk $end
  $var wire 1 # rst_n $end
  $var wire 1 $ buf_wen $end
  $var wire 4 % buf_row [3:0] $end
  $var wire 32 & buf_data[15] [31:0] $end
  $var wire 32 ' buf_data[14] [31:0] $end
  $var wire 32 ( buf_data[13] [31:0] $end
  $var wire 32 ) buf_data[12] [31:0] $end
  $var wire 32 * buf_data[11] [31:0] $end
  $var wire 32 + buf_data[10] [31:0] $end
  $var wire 32 , buf_data[9] [31:0] $end
  $var wire 32 - buf_data[8] [31:0] $end
  $var wire 32 . buf_data[7] [31:0] $end
  $var wire 32 / buf_data[6] [31:0] $end
  $var wire 32 0 buf_data[5] [31:0] $end
  $var wire 32 1 buf_data[4] [31:0] $end
  $var wire 32 2 buf_data[3] [31:0] $end
  $var wire 32 3 buf_data[2] [31:0] $end
  $var wire 32 4 buf_data[1] [31:0] $end
  $var wire 32 5 buf_data[0] [31:0] $end
  $var wire 1 6 arvalid $end
  $var wire 4 7 arid [3:0] $end
  $var wire 64 8 araddr [63:0] $end
  $var wire 8 : arlen [7:0] $end
  $var wire 3 ; arsize [2:0] $end
  $var wire 2 < arburst [1:0] $end
  $var wire 1 = arready $end
  $var wire 1 > rvalid $end
  $var wire 4 ? rid [3:0] $end
  $var wire 128 @ rdata [127:0] $end
  $var wire 2 D rresp [1:0] $end
  $var wire 1 E rlast $end
  $var wire 1 F rready $end
 $upscope $end
 $scope module output_buffer_wrap $end
  $var wire 1 G clk $end
  $var wire 1 H rst_n $end
  $var wire 1 I buf_wen $end
  $var wire 4 J buf_row [3:0] $end
  $var wire 32 K buf_data[15] [31:0] $end
  $var wire 32 L buf_data[14] [31:0] $end
  $var wire 32 M buf_data[13] [31:0] $end
  $var wire 32 N buf_data[12] [31:0] $end
  $var wire 32 O buf_data[11] [31:0] $end
  $var wire 32 P buf_data[10] [31:0] $end
  $var wire 32 Q buf_data[9] [31:0] $end
  $var wire 32 R buf_data[8] [31:0] $end
  $var wire 32 S buf_data[7] [31:0] $end
  $var wire 32 T buf_data[6] [31:0] $end
  $var wire 32 U buf_data[5] [31:0] $end
  $var wire 32 V buf_data[4] [31:0] $end
  $var wire 32 W buf_data[3] [31:0] $end
  $var wire 32 X buf_data[2] [31:0] $end
  $var wire 32 Y buf_data[1] [31:0] $end
  $var wire 32 Z buf_data[0] [31:0] $end
  $var wire 1 [ arvalid $end
  $var wire 4 \ arid [3:0] $end
  $var wire 64 ] araddr [63:0] $end
  $var wire 8 _ arlen [7:0] $end
  $var wire 3 ` arsize [2:0] $end
  $var wire 2 a arburst [1:0] $end
  $var wire 1 b arready $end
  $var wire 1 c rvalid $end
  $var wire 4 d rid [3:0] $end
  $var wire 128 e rdata [127:0] $end
  $var wire 2 i rresp [1:0] $end
  $var wire 1 j rlast $end
  $var wire 1 k rready $end
  $scope module c2h_axi $end
   $var wire 32 L! ADDR_WIDTH [31:0] $end
   $var wire 32 M! DATA_WIDTH [31:0] $end
   $var wire 32 N! ID_WIDTH [31:0] $end
   $var wire 32 O! LEN_WIDTH [31:0] $end
   $var wire 1 %! aclk $end
   $var wire 1 &! aresetn $end
   $var wire 1 '! awvalid $end
   $var wire 1 (! awready $end
   $var wire 4 )! awid [3:0] $end
   $var wire 64 *! awaddr [63:0] $end
   $var wire 8 ,! awlen [7:0] $end
   $var wire 3 -! awsize [2:0] $end
   $var wire 2 .! awburst [1:0] $end
   $var wire 1 /! wvalid $end
   $var wire 1 0! wready $end
   $var wire 128 1! wdata [127:0] $end
   $var wire 16 5! wstrb [15:0] $end
   $var wire 1 6! wlast $end
   $var wire 1 7! bvalid $end
   $var wire 1 8! bready $end
   $var wire 4 9! bid [3:0] $end
   $var wire 2 :! bresp [1:0] $end
   $var wire 1 ;! arvalid $end
   $var wire 1 <! arready $end
   $var wire 4 =! arid [3:0] $end
   $var wire 64 >! araddr [63:0] $end
   $var wire 8 @! arlen [7:0] $end
   $var wire 3 A! arsize [2:0] $end
   $var wire 2 B! arburst [1:0] $end
   $var wire 1 C! rvalid $end
   $var wire 1 D! rready $end
   $var wire 4 E! rid [3:0] $end
   $var wire 128 F! rdata [127:0] $end
   $var wire 2 J! rresp [1:0] $end
   $var wire 1 K! rlast $end
  $upscope $end
  $scope module dut $end
   $var wire 1 l clk $end
   $var wire 1 m rst_n $end
   $var wire 1 n buf_wen $end
   $var wire 4 o buf_row [3:0] $end
   $var wire 32 p buf_data[15] [31:0] $end
   $var wire 32 q buf_data[14] [31:0] $end
   $var wire 32 r buf_data[13] [31:0] $end
   $var wire 32 s buf_data[12] [31:0] $end
   $var wire 32 t buf_data[11] [31:0] $end
   $var wire 32 u buf_data[10] [31:0] $end
   $var wire 32 v buf_data[9] [31:0] $end
   $var wire 32 w buf_data[8] [31:0] $end
   $var wire 32 x buf_data[7] [31:0] $end
   $var wire 32 y buf_data[6] [31:0] $end
   $var wire 32 z buf_data[5] [31:0] $end
   $var wire 32 { buf_data[4] [31:0] $end
   $var wire 32 | buf_data[3] [31:0] $end
   $var wire 32 } buf_data[2] [31:0] $end
   $var wire 32 ~ buf_data[1] [31:0] $end
   $var wire 32 !! buf_data[0] [31:0] $end
   $var wire 1 "! state $end
   $var wire 6 #! beat_addr [5:0] $end
   $var wire 8 $! beat_count [7:0] $end
   $scope module c2h_axi $end
    $var wire 32 L! ADDR_WIDTH [31:0] $end
    $var wire 32 M! DATA_WIDTH [31:0] $end
    $var wire 32 N! ID_WIDTH [31:0] $end
    $var wire 32 O! LEN_WIDTH [31:0] $end
    $var wire 1 %! aclk $end
    $var wire 1 &! aresetn $end
    $var wire 1 '! awvalid $end
    $var wire 1 (! awready $end
    $var wire 4 )! awid [3:0] $end
    $var wire 64 *! awaddr [63:0] $end
    $var wire 8 ,! awlen [7:0] $end
    $var wire 3 -! awsize [2:0] $end
    $var wire 2 .! awburst [1:0] $end
    $var wire 1 /! wvalid $end
    $var wire 1 0! wready $end
    $var wire 128 1! wdata [127:0] $end
    $var wire 16 5! wstrb [15:0] $end
    $var wire 1 6! wlast $end
    $var wire 1 7! bvalid $end
    $var wire 1 8! bready $end
    $var wire 4 9! bid [3:0] $end
    $var wire 2 :! bresp [1:0] $end
    $var wire 1 ;! arvalid $end
    $var wire 1 <! arready $end
    $var wire 4 =! arid [3:0] $end
    $var wire 64 >! araddr [63:0] $end
    $var wire 8 @! arlen [7:0] $end
    $var wire 3 A! arsize [2:0] $end
    $var wire 2 B! arburst [1:0] $end
    $var wire 1 C! rvalid $end
    $var wire 1 D! rready $end
    $var wire 4 E! rid [3:0] $end
    $var wire 128 F! rdata [127:0] $end
    $var wire 2 J! rresp [1:0] $end
    $var wire 1 K! rlast $end
   $upscope $end
  $upscope $end
 $upscope $end
$enddefinitions $end


#0
1"
0#
0$
b0000 %
b00000000000000000000000000000000 &
b00000000000000000000000000000000 '
b00000000000000000000000000000000 (
b00000000000000000000000000000000 )
b00000000000000000000000000000000 *
b00000000000000000000000000000000 +
b00000000000000000000000000000000 ,
b00000000000000000000000000000000 -
b00000000000000000000000000000000 .
b00000000000000000000000000000000 /
b00000000000000000000000000000000 0
b00000000000000000000000000000000 1
b00000000000000000000000000000000 2
b00000000000000000000000000000000 3
b00000000000000000000000000000000 4
b00000000000000000000000000000000 5
06
b0000 7
b0000000000000000000000000000000000000000000000000000000000000000 8
b00000000 :
b000 ;
b00 <
0=
0>
b0000 ?
b00000000000000000000000000000000000000000000000000000000000000000000000000000000000000000000000000000000000000000000000000000000 @
b00 D
0E
0F
1G
0H
0I
b0000 J
b00000000000000000000000000000000 K
b00000000000000000000000000000000 L
b00000000000000000000000000000000 M
b00000000000000000000000000000000 N
b00000000000000000000000000000000 O
b00000000000000000000000000000000 P
b00000000000000000000000000000000 Q
b00000000000000000000000000000000 R
b00000000000000000000000000000000 S
b00000000000000000000000000000000 T
b00000000000000000000000000000000 U
b00000000000000000000000000000000 V
b00000000000000000000000000000000 W
b00000000000000000000000000000000 X
b00000000000000000000000000000000 Y
b00000000000000000000000000000000 Z
0[
b0000 \
b0000000000000000000000000000000000000000000000000000000000000000 ]
b00000000 _
b000 `
b00 a
0b
0c
b0000 d
b00000000000000000000000000000000000000000000000000000000000000000000000000000000000000000000000000000000000000000000000000000000 e
b00 i
0j
0k
1l
0m
0n
b0000 o
b00000000000000000000000000000000 p
b00000000000000000000000000000000 q
b00000000000000000000000000000000 r
b00000000000000000000000000000000 s
b00000000000000000000000000000000 t
b00000000000000000000000000000000 u
b00000000000000000000000000000000 v
b00000000000000000000000000000000 w
b00000000000000000000000000000000 x
b00000000000000000000000000000000 y
b00000000000000000000000000000000 z
b00000000000000000000000000000000 {
b00000000000000000000000000000000 |
b00000000000000000000000000000000 }
b00000000000000000000000000000000 ~
b00000000000000000000000000000000 !!
0"!
b000000 #!
b00000000 $!
1%!
0&!
0'!
0(!
b0000 )!
b0000000000000000000000000000000000000000000000000000000000000000 *!
b00000000 ,!
b000 -!
b00 .!
0/!
00!
b00000000000000000000000000000000000000000000000000000000000000000000000000000000000000000000000000000000000000000000000000000000 1!
b0000000000000000 5!
06!
07!
08!
b0000 9!
b00 :!
0;!
0<!
b0000 =!
b0000000000000000000000000000000000000000000000000000000000000000 >!
b00000000 @!
b000 A!
b00 B!
0C!
0D!
b0000 E!
b00000000000000000000000000000000000000000000000000000000000000000000000000000000000000000000000000000000000000000000000000000000 F!
b00 J!
0K!
b00000000000000000000000001000000 L!
b00000000000000000000000010000000 M!
b00000000000000000000000000000100 N!
b00000000000000000000000000001000 O!
#5000
0"
0G
0l
0%!
#10000
1"
1#
1G
1H
1l
1m
1%!
1&!
#15000
0"
0G
0l
0%!
#20000
1"
1=
1G
1b
1l
1%!
1<!
#20001
0#
0H
0m
0&!
#25001
0"
0G
0l
0%!
#30001
1"
0=
1G
0b
1l
1%!
0<!
#35001
0"
0G
0l
0%!
#40001
1"
1#
1G
1H
1l
1m
1%!
1&!
#45001
0"
0G
0l
0%!
#50001
1"
1$
b00000000000000000000000000001111 &
b00000000000000000000000000001110 '
b00000000000000000000000000001101 (
b00000000000000000000000000001100 )
b00000000000000000000000000001011 *
b00000000000000000000000000001010 +
b00000000000000000000000000001001 ,
b00000000000000000000000000001000 -
b00000000000000000000000000000111 .
b00000000000000000000000000000110 /
b00000000000000000000000000000101 0
b00000000000000000000000000000100 1
b00000000000000000000000000000011 2
b00000000000000000000000000000010 3
b00000000000000000000000000000001 4
1=
1G
1I
b00000000000000000000000000001111 K
b00000000000000000000000000001110 L
b00000000000000000000000000001101 M
b00000000000000000000000000001100 N
b00000000000000000000000000001011 O
b00000000000000000000000000001010 P
b00000000000000000000000000001001 Q
b00000000000000000000000000001000 R
b00000000000000000000000000000111 S
b00000000000000000000000000000110 T
b00000000000000000000000000000101 U
b00000000000000000000000000000100 V
b00000000000000000000000000000011 W
b00000000000000000000000000000010 X
b00000000000000000000000000000001 Y
1b
1l
1n
b00000000000000000000000000001111 p
b00000000000000000000000000001110 q
b00000000000000000000000000001101 r
b00000000000000000000000000001100 s
b00000000000000000000000000001011 t
b00000000000000000000000000001010 u
b00000000000000000000000000001001 v
b00000000000000000000000000001000 w
b00000000000000000000000000000111 x
b00000000000000000000000000000110 y
b00000000000000000000000000000101 z
b00000000000000000000000000000100 {
b00000000000000000000000000000011 |
b00000000000000000000000000000010 }
b00000000000000000000000000000001 ~
1%!
1<!
#55001
0"
0G
0l
0%!
#60001
1"
b0001 %
b00000000000000000000000000011111 &
b00000000000000000000000000011110 '
b00000000000000000000000000011101 (
b00000000000000000000000000011100 )
b00000000000000000000000000011011 *
b00000000000000000000000000011010 +
b00000000000000000000000000011001 ,
b00000000000000000000000000011000 -
b00000000000000000000000000010111 .
b00000000000000000000000000010110 /
b00000000000000000000000000010101 0
b00000000000000000000000000010100 1
b00000000000000000000000000010011 2
b00000000000000000000000000010010 3
b00000000000000000000000000010001 4
b00000000000000000000000000010000 5
b00000000000000000000000000000011000000000000000000000000000000100000000000000000000000000000000100000000000000000000000000000000 @
1G
b0001 J
b00000000000000000000000000011111 K
b00000000000000000000000000011110 L
b00000000000000000000000000011101 M
b00000000000000000000000000011100 N
b00000000000000000000000000011011 O
b00000000000000000000000000011010 P
b00000000000000000000000000011001 Q
b00000000000000000000000000011000 R
b00000000000000000000000000010111 S
b00000000000000000000000000010110 T
b00000000000000000000000000010101 U
b00000000000000000000000000010100 V
b00000000000000000000000000010011 W
b00000000000000000000000000010010 X
b00000000000000000000000000010001 Y
b00000000000000000000000000010000 Z
b00000000000000000000000000000011000000000000000000000000000000100000000000000000000000000000000100000000000000000000000000000000 e
1l
b0001 o
b00000000000000000000000000011111 p
b00000000000000000000000000011110 q
b00000000000000000000000000011101 r
b00000000000000000000000000011100 s
b00000000000000000000000000011011 t
b00000000000000000000000000011010 u
b00000000000000000000000000011001 v
b00000000000000000000000000011000 w
b00000000000000000000000000010111 x
b00000000000000000000000000010110 y
b00000000000000000000000000010101 z
b00000000000000000000000000010100 {
b00000000000000000000000000010011 |
b00000000000000000000000000010010 }
b00000000000000000000000000010001 ~
b00000000000000000000000000010000 !!
1%!
b00000000000000000000000000000011000000000000000000000000000000100000000000000000000000000000000100000000000000000000000000000000 F!
#65001
0"
0G
0l
0%!
#70001
1"
b0010 %
b00000000000000000000000000101111 &
b00000000000000000000000000101110 '
b00000000000000000000000000101101 (
b00000000000000000000000000101100 )
b00000000000000000000000000101011 *
b00000000000000000000000000101010 +
b00000000000000000000000000101001 ,
b00000000000000000000000000101000 -
b00000000000000000000000000100111 .
b00000000000000000000000000100110 /
b00000000000000000000000000100101 0
b00000000000000000000000000100100 1
b00000000000000000000000000100011 2
b00000000000000000000000000100010 3
b00000000000000000000000000100001 4
b00000000000000000000000000100000 5
1G
b0010 J
b00000000000000000000000000101111 K
b00000000000000000000000000101110 L
b00000000000000000000000000101101 M
b00000000000000000000000000101100 N
b00000000000000000000000000101011 O
b00000000000000000000000000101010 P
b00000000000000000000000000101001 Q
b00000000000000000000000000101000 R
b00000000000000000000000000100111 S
b00000000000000000000000000100110 T
b00000000000000000000000000100101 U
b00000000000000000000000000100100 V
b00000000000000000000000000100011 W
b00000000000000000000000000100010 X
b00000000000000000000000000100001 Y
b00000000000000000000000000100000 Z
1l
b0010 o
b00000000000000000000000000101111 p
b00000000000000000000000000101110 q
b00000000000000000000000000101101 r
b00000000000000000000000000101100 s
b00000000000000000000000000101011 t
b00000000000000000000000000101010 u
b00000000000000000000000000101001 v
b00000000000000000000000000101000 w
b00000000000000000000000000100111 x
b00000000000000000000000000100110 y
b00000000000000000000000000100101 z
b00000000000000000000000000100100 {
b00000000000000000000000000100011 |
b00000000000000000000000000100010 }
b00000000000000000000000000100001 ~
b00000000000000000000000000100000 !!
1%!
#75001
0"
0G
0l
0%!
#80001
1"
b0011 %
b00000000000000000000000000111111 &
b00000000000000000000000000111110 '
b00000000000000000000000000111101 (
b00000000000000000000000000111100 )
b00000000000000000000000000111011 *
b00000000000000000000000000111010 +
b00000000000000000000000000111001 ,
b00000000000000000000000000111000 -
b00000000000000000000000000110111 .
b00000000000000000000000000110110 /
b00000000000000000000000000110101 0
b00000000000000000000000000110100 1
b00000000000000000000000000110011 2
b00000000000000000000000000110010 3
b00000000000000000000000000110001 4
b00000000000000000000000000110000 5
1G
b0011 J
b00000000000000000000000000111111 K
b00000000000000000000000000111110 L
b00000000000000000000000000111101 M
b00000000000000000000000000111100 N
b00000000000000000000000000111011 O
b00000000000000000000000000111010 P
b00000000000000000000000000111001 Q
b00000000000000000000000000111000 R
b00000000000000000000000000110111 S
b00000000000000000000000000110110 T
b00000000000000000000000000110101 U
b00000000000000000000000000110100 V
b00000000000000000000000000110011 W
b00000000000000000000000000110010 X
b00000000000000000000000000110001 Y
b00000000000000000000000000110000 Z
1l
b0011 o
b00000000000000000000000000111111 p
b00000000000000000000000000111110 q
b00000000000000000000000000111101 r
b00000000000000000000000000111100 s
b00000000000000000000000000111011 t
b00000000000000000000000000111010 u
b00000000000000000000000000111001 v
b00000000000000000000000000111000 w
b00000000000000000000000000110111 x
b00000000000000000000000000110110 y
b00000000000000000000000000110101 z
b00000000000000000000000000110100 {
b00000000000000000000000000110011 |
b00000000000000000000000000110010 }
b00000000000000000000000000110001 ~
b00000000000000000000000000110000 !!
1%!
#85001
0"
0G
0l
0%!
#90001
1"
b0100 %
b00000000000000000000000001001111 &
b00000000000000000000000001001110 '
b00000000000000000000000001001101 (
b00000000000000000000000001001100 )
b00000000000000000000000001001011 *
b00000000000000000000000001001010 +
b00000000000000000000000001001001 ,
b00000000000000000000000001001000 -
b00000000000000000000000001000111 .
b00000000000000000000000001000110 /
b00000000000000000000000001000101 0
b00000000000000000000000001000100 1
b00000000000000000000000001000011 2
b00000000000000000000000001000010 3
b00000000000000000000000001000001 4
b00000000000000000000000001000000 5
1G
b0100 J
b00000000000000000000000001001111 K
b00000000000000000000000001001110 L
b00000000000000000000000001001101 M
b00000000000000000000000001001100 N
b00000000000000000000000001001011 O
b00000000000000000000000001001010 P
b00000000000000000000000001001001 Q
b00000000000000000000000001001000 R
b00000000000000000000000001000111 S
b00000000000000000000000001000110 T
b00000000000000000000000001000101 U
b00000000000000000000000001000100 V
b00000000000000000000000001000011 W
b00000000000000000000000001000010 X
b00000000000000000000000001000001 Y
b00000000000000000000000001000000 Z
1l
b0100 o
b00000000000000000000000001001111 p
b00000000000000000000000001001110 q
b00000000000000000000000001001101 r
b00000000000000000000000001001100 s
b00000000000000000000000001001011 t
b00000000000000000000000001001010 u
b00000000000000000000000001001001 v
b00000000000000000000000001001000 w
b00000000000000000000000001000111 x
b00000000000000000000000001000110 y
b00000000000000000000000001000101 z
b00000000000000000000000001000100 {
b00000000000000000000000001000011 |
b00000000000000000000000001000010 }
b00000000000000000000000001000001 ~
b00000000000000000000000001000000 !!
1%!
#95001
0"
0G
0l
0%!
#100001
1"
b0101 %
b00000000000000000000000001011111 &
b00000000000000000000000001011110 '
b00000000000000000000000001011101 (
b00000000000000000000000001011100 )
b00000000000000000000000001011011 *
b00000000000000000000000001011010 +
b00000000000000000000000001011001 ,
b00000000000000000000000001011000 -
b00000000000000000000000001010111 .
b00000000000000000000000001010110 /
b00000000000000000000000001010101 0
b00000000000000000000000001010100 1
b00000000000000000000000001010011 2
b00000000000000000000000001010010 3
b00000000000000000000000001010001 4
b00000000000000000000000001010000 5
1G
b0101 J
b00000000000000000000000001011111 K
b00000000000000000000000001011110 L
b00000000000000000000000001011101 M
b00000000000000000000000001011100 N
b00000000000000000000000001011011 O
b00000000000000000000000001011010 P
b00000000000000000000000001011001 Q
b00000000000000000000000001011000 R
b00000000000000000000000001010111 S
b00000000000000000000000001010110 T
b00000000000000000000000001010101 U
b00000000000000000000000001010100 V
b00000000000000000000000001010011 W
b00000000000000000000000001010010 X
b00000000000000000000000001010001 Y
b00000000000000000000000001010000 Z
1l
b0101 o
b00000000000000000000000001011111 p
b00000000000000000000000001011110 q
b00000000000000000000000001011101 r
b00000000000000000000000001011100 s
b00000000000000000000000001011011 t
b00000000000000000000000001011010 u
b00000000000000000000000001011001 v
b00000000000000000000000001011000 w
b00000000000000000000000001010111 x
b00000000000000000000000001010110 y
b00000000000000000000000001010101 z
b00000000000000000000000001010100 {
b00000000000000000000000001010011 |
b00000000000000000000000001010010 }
b00000000000000000000000001010001 ~
b00000000000000000000000001010000 !!
1%!
#105001
0"
0G
0l
0%!
#110001
1"
b0110 %
b00000000000000000000000001101111 &
b00000000000000000000000001101110 '
b00000000000000000000000001101101 (
b00000000000000000000000001101100 )
b00000000000000000000000001101011 *
b00000000000000000000000001101010 +
b00000000000000000000000001101001 ,
b00000000000000000000000001101000 -
b00000000000000000000000001100111 .
b00000000000000000000000001100110 /
b00000000000000000000000001100101 0
b00000000000000000000000001100100 1
b00000000000000000000000001100011 2
b00000000000000000000000001100010 3
b00000000000000000000000001100001 4
b00000000000000000000000001100000 5
1G
b0110 J
b00000000000000000000000001101111 K
b00000000000000000000000001101110 L
b00000000000000000000000001101101 M
b00000000000000000000000001101100 N
b00000000000000000000000001101011 O
b00000000000000000000000001101010 P
b00000000000000000000000001101001 Q
b00000000000000000000000001101000 R
b00000000000000000000000001100111 S
b00000000000000000000000001100110 T
b00000000000000000000000001100101 U
b00000000000000000000000001100100 V
b00000000000000000000000001100011 W
b00000000000000000000000001100010 X
b00000000000000000000000001100001 Y
b00000000000000000000000001100000 Z
1l
b0110 o
b00000000000000000000000001101111 p
b00000000000000000000000001101110 q
b00000000000000000000000001101101 r
b00000000000000000000000001101100 s
b00000000000000000000000001101011 t
b00000000000000000000000001101010 u
b00000000000000000000000001101001 v
b00000000000000000000000001101000 w
b00000000000000000000000001100111 x
b00000000000000000000000001100110 y
b00000000000000000000000001100101 z
b00000000000000000000000001100100 {
b00000000000000000000000001100011 |
b00000000000000000000000001100010 }
b00000000000000000000000001100001 ~
b00000000000000000000000001100000 !!
1%!
#115001
0"
0G
0l
0%!
#120001
1"
b0111 %
b00000000000000000000000001111111 &
b00000000000000000000000001111110 '
b00000000000000000000000001111101 (
b00000000000000000000000001111100 )
b00000000000000000000000001111011 *
b00000000000000000000000001111010 +
b00000000000000000000000001111001 ,
b00000000000000000000000001111000 -
b00000000000000000000000001110111 .
b00000000000000000000000001110110 /
b00000000000000000000000001110101 0
b00000000000000000000000001110100 1
b00000000000000000000000001110011 2
b00000000000000000000000001110010 3
b00000000000000000000000001110001 4
b00000000000000000000000001110000 5
1G
b0111 J
b00000000000000000000000001111111 K
b00000000000000000000000001111110 L
b00000000000000000000000001111101 M
b00000000000000000000000001111100 N
b00000000000000000000000001111011 O
b00000000000000000000000001111010 P
b00000000000000000000000001111001 Q
b00000000000000000000000001111000 R
b00000000000000000000000001110111 S
b00000000000000000000000001110110 T
b00000000000000000000000001110101 U
b00000000000000000000000001110100 V
b00000000000000000000000001110011 W
b00000000000000000000000001110010 X
b00000000000000000000000001110001 Y
b00000000000000000000000001110000 Z
1l
b0111 o
b00000000000000000000000001111111 p
b00000000000000000000000001111110 q
b00000000000000000000000001111101 r
b00000000000000000000000001111100 s
b00000000000000000000000001111011 t
b00000000000000000000000001111010 u
b00000000000000000000000001111001 v
b00000000000000000000000001111000 w
b00000000000000000000000001110111 x
b00000000000000000000000001110110 y
b00000000000000000000000001110101 z
b00000000000000000000000001110100 {
b00000000000000000000000001110011 |
b00000000000000000000000001110010 }
b00000000000000000000000001110001 ~
b00000000000000000000000001110000 !!
1%!
#125001
0"
0G
0l
0%!
#130001
1"
b1000 %
b00000000000000000000000010001111 &
b00000000000000000000000010001110 '
b00000000000000000000000010001101 (
b00000000000000000000000010001100 )
b00000000000000000000000010001011 *
b00000000000000000000000010001010 +
b00000000000000000000000010001001 ,
b00000000000000000000000010001000 -
b00000000000000000000000010000111 .
b00000000000000000000000010000110 /
b00000000000000000000000010000101 0
b00000000000000000000000010000100 1
b00000000000000000000000010000011 2
b00000000000000000000000010000010 3
b00000000000000000000000010000001 4
b00000000000000000000000010000000 5
1G
b1000 J
b00000000000000000000000010001111 K
b00000000000000000000000010001110 L
b00000000000000000000000010001101 M
b00000000000000000000000010001100 N
b00000000000000000000000010001011 O
b00000000000000000000000010001010 P
b00000000000000000000000010001001 Q
b00000000000000000000000010001000 R
b00000000000000000000000010000111 S
b00000000000000000000000010000110 T
b00000000000000000000000010000101 U
b00000000000000000000000010000100 V
b00000000000000000000000010000011 W
b00000000000000000000000010000010 X
b00000000000000000000000010000001 Y
b00000000000000000000000010000000 Z
1l
b1000 o
b00000000000000000000000010001111 p
b00000000000000000000000010001110 q
b00000000000000000000000010001101 r
b00000000000000000000000010001100 s
b00000000000000000000000010001011 t
b00000000000000000000000010001010 u
b00000000000000000000000010001001 v
b00000000000000000000000010001000 w
b00000000000000000000000010000111 x
b00000000000000000000000010000110 y
b00000000000000000000000010000101 z
b00000000000000000000000010000100 {
b00000000000000000000000010000011 |
b00000000000000000000000010000010 }
b00000000000000000000000010000001 ~
b00000000000000000000000010000000 !!
1%!
#135001
0"
0G
0l
0%!
#140001
1"
b1001 %
b00000000000000000000000010011111 &
b00000000000000000000000010011110 '
b00000000000000000000000010011101 (
b00000000000000000000000010011100 )
b00000000000000000000000010011011 *
b00000000000000000000000010011010 +
b00000000000000000000000010011001 ,
b00000000000000000000000010011000 -
b00000000000000000000000010010111 .
b00000000000000000000000010010110 /
b00000000000000000000000010010101 0
b00000000000000000000000010010100 1
b00000000000000000000000010010011 2
b00000000000000000000000010010010 3
b00000000000000000000000010010001 4
b00000000000000000000000010010000 5
1G
b1001 J
b00000000000000000000000010011111 K
b00000000000000000000000010011110 L
b00000000000000000000000010011101 M
b00000000000000000000000010011100 N
b00000000000000000000000010011011 O
b00000000000000000000000010011010 P
b00000000000000000000000010011001 Q
b00000000000000000000000010011000 R
b00000000000000000000000010010111 S
b00000000000000000000000010010110 T
b00000000000000000000000010010101 U
b00000000000000000000000010010100 V
b00000000000000000000000010010011 W
b00000000000000000000000010010010 X
b00000000000000000000000010010001 Y
b00000000000000000000000010010000 Z
1l
b1001 o
b00000000000000000000000010011111 p
b00000000000000000000000010011110 q
b00000000000000000000000010011101 r
b00000000000000000000000010011100 s
b00000000000000000000000010011011 t
b00000000000000000000000010011010 u
b00000000000000000000000010011001 v
b00000000000000000000000010011000 w
b00000000000000000000000010010111 x
b00000000000000000000000010010110 y
b00000000000000000000000010010101 z
b00000000000000000000000010010100 {
b00000000000000000000000010010011 |
b00000000000000000000000010010010 }
b00000000000000000000000010010001 ~
b00000000000000000000000010010000 !!
1%!
#145001
0"
0G
0l
0%!
#150001
1"
b1010 %
b00000000000000000000000010101111 &
b00000000000000000000000010101110 '
b00000000000000000000000010101101 (
b00000000000000000000000010101100 )
b00000000000000000000000010101011 *
b00000000000000000000000010101010 +
b00000000000000000000000010101001 ,
b00000000000000000000000010101000 -
b00000000000000000000000010100111 .
b00000000000000000000000010100110 /
b00000000000000000000000010100101 0
b00000000000000000000000010100100 1
b00000000000000000000000010100011 2
b00000000000000000000000010100010 3
b00000000000000000000000010100001 4
b00000000000000000000000010100000 5
1G
b1010 J
b00000000000000000000000010101111 K
b00000000000000000000000010101110 L
b00000000000000000000000010101101 M
b00000000000000000000000010101100 N
b00000000000000000000000010101011 O
b00000000000000000000000010101010 P
b00000000000000000000000010101001 Q
b00000000000000000000000010101000 R
b00000000000000000000000010100111 S
b00000000000000000000000010100110 T
b00000000000000000000000010100101 U
b00000000000000000000000010100100 V
b00000000000000000000000010100011 W
b00000000000000000000000010100010 X
b00000000000000000000000010100001 Y
b00000000000000000000000010100000 Z
1l
b1010 o
b00000000000000000000000010101111 p
b00000000000000000000000010101110 q
b00000000000000000000000010101101 r
b00000000000000000000000010101100 s
b00000000000000000000000010101011 t
b00000000000000000000000010101010 u
b00000000000000000000000010101001 v
b00000000000000000000000010101000 w
b00000000000000000000000010100111 x
b00000000000000000000000010100110 y
b00000000000000000000000010100101 z
b00000000000000000000000010100100 {
b00000000000000000000000010100011 |
b00000000000000000000000010100010 }
b00000000000000000000000010100001 ~
b00000000000000000000000010100000 !!
1%!
#155001
0"
0G
0l
0%!
#160001
1"
b1011 %
b00000000000000000000000010111111 &
b00000000000000000000000010111110 '
b00000000000000000000000010111101 (
b00000000000000000000000010111100 )
b00000000000000000000000010111011 *
b00000000000000000000000010111010 +
b00000000000000000000000010111001 ,
b00000000000000000000000010111000 -
b00000000000000000000000010110111 .
b00000000000000000000000010110110 /
b00000000000000000000000010110101 0
b00000000000000000000000010110100 1
b00000000000000000000000010110011 2
b00000000000000000000000010110010 3
b00000000000000000000000010110001 4
b00000000000000000000000010110000 5
1G
b1011 J
b00000000000000000000000010111111 K
b00000000000000000000000010111110 L
b00000000000000000000000010111101 M
b00000000000000000000000010111100 N
b00000000000000000000000010111011 O
b00000000000000000000000010111010 P
b00000000000000000000000010111001 Q
b00000000000000000000000010111000 R
b00000000000000000000000010110111 S
b00000000000000000000000010110110 T
b00000000000000000000000010110101 U
b00000000000000000000000010110100 V
b00000000000000000000000010110011 W
b00000000000000000000000010110010 X
b00000000000000000000000010110001 Y
b00000000000000000000000010110000 Z
1l
b1011 o
b00000000000000000000000010111111 p
b00000000000000000000000010111110 q
b00000000000000000000000010111101 r
b00000000000000000000000010111100 s
b00000000000000000000000010111011 t
b00000000000000000000000010111010 u
b00000000000000000000000010111001 v
b00000000000000000000000010111000 w
b00000000000000000000000010110111 x
b00000000000000000000000010110110 y
b00000000000000000000000010110101 z
b00000000000000000000000010110100 {
b00000000000000000000000010110011 |
b00000000000000000000000010110010 }
b00000000000000000000000010110001 ~
b00000000000000000000000010110000 !!
1%!
#165001
0"
0G
0l
0%!
