sim/systolic_data_setup/dump.vcd
$version Generated by VerilatedVcd $end
$timescale 1ps $end
 $scope module $rootio $end
  $var wire 1 " clk $end
  $var wire 1 # rst_n $end
  $var wire 1 $ start $end
  $var wire 1 % done $end
  $var wire 4 & weight_buf_addr [3:0] $end
  $var wire 8 ' weight_buf_data[15] [7:0] $end
  $var wire 8 ( weight_buf_data[14] [7:0] $end
  $var wire 8 ) weight_buf_data[13] [7:0] $end
  $var wire 8 * weight_buf_data[12] [7:0] $end
  $var wire 8 + weight_buf_data[11] [7:0] $end
  $var wire 8 , weight_buf_data[10] [7:0] $end
  $var wire 8 - weight_buf_data[9] [7:0] $end
  $var wire 8 . weight_buf_data[8] [7:0] $end
  $var wire 8 / weight_buf_data[7] [7:0] $end
  $var wire 8 0 weight_buf_data[6] [7:0] $end
  $var wire 8 1 weight_buf_data[5] [7:0] $end
  $var wire 8 2 weight_buf_data[4] [7:0] $end
  $var wire 8 3 weight_buf_data[3] [7:0] $end
  $var wire 8 4 weight_buf_data[2] [7:0] $end
  $var wire 8 5 weight_buf_data[1] [7:0] $end
  $var wire 8 6 weight_buf_data[0] [7:0] $end
  $var wire 4 7 act_buf_addr [3:0] $end
  $var wire 8 8 act_buf_data[15] [7:0] $end
  $var wire 8 9 act_buf_data[14] [7:0] $end
  $var wire 8 : act_buf_data[13] [7:0] $end
  $var wire 8 ; act_buf_data[12] [7:0] $end
  $var wire 8 < act_buf_data[11] [7:0] $end
  $var wire 8 = act_buf_data[10] [7:0] $end
  $var wire 8 > act_buf_data[9] [7:0] $end
  $var wire 8 ? act_buf_data[8] [7:0] $end
  $var wire 8 @ act_buf_data[7] [7:0] $end
  $var wire 8 A act_buf_data[6] [7:0] $end
  $var wire 8 B act_buf_data[5] [7:0] $end
  $var wire 8 C act_buf_data[4] [7:0] $end
  $var wire 8 D act_buf_data[3] [7:0] $end
  $var wire 8 E act_buf_data[2] [7:0] $end
  $var wire 8 F act_buf_data[1] [7:0] $end
  $var wire 8 G act_buf_data[0] [7:0] $end
  $var wire 8 H weight_in[15] [7:0] $end
  $var wire 8 I weight_in[14] [7:0] $end
  $var wire 8 J weight_in[13] [7:0] $end
  $var wire 8 K weight_in[12] [7:0] $end
  $var wire 8 L weight_in[11] [7:0] $end
  $var wire 8 M weight_in[10] [7:0] $end
  $var wire 8 N weight_in[9] [7:0] $end
  $var wire 8 O weight_in[8] [7:0] $end
  $var wire 8 P weight_in[7] [7:0] $end
  $var wire 8 Q weight_in[6] [7:0] $end
  $var wire 8 R weight_in[5] [7:0] $end
  $var wire 8 S weight_in[4] [7:0] $end
  $var wire 8 T weight_in[3] [7:0] $end
  $var wire 8 U weight_in[2] [7:0] $end
  $var wire 8 V weight_in[1] [7:0] $end
  $var wire 8 W weight_in[0] [7:0] $end
  $var wire 1 X weight_load_en $end
  $var wire 8 Y act_in[15] [7:0] $end
  $var wire 8 Z act_in[14] [7:0] $end
  $var wire 8 [ act_in[13] [7:0] $end
  $var wire 8 \ act_in[12] [7:0] $end
  $var wire 8 ] act_in[11] [7:0] $end
  $var wire 8 ^ act_in[10] [7:0] $end
  $var wire 8 _ act_in[9] [7:0] $end
  $var wire 8 ` act_in[8] [7:0] $end
  $var wire 8 a act_in[7] [7:0] $end
  $var wire 8 b act_in[6] [7:0] $end
  $var wire 8 c act_in[5] [7:0] $end
  $var wire 8 d act_in[4] [7:0] $end
  $var wire 8 e act_in[3] [7:0] $end
  $var wire 8 f act_in[2] [7:0] $end
  $var wire 8 g act_in[1] [7:0] $end
  $var wire 8 h act_in[0] [7:0] $end
  $var wire 1 i row_valid $end
 $upscope $end
 $scope module systolic_data_setup $end
  $var wire 1 j clk $end
  $var wire 1 k rst_n $end
  $var wire 1 l start $end
  $var wire 1 m done $end
  $var wire 4 n weight_buf_addr [3:0] $end
  $var wire 8 o weight_buf_data[15] [7:0] $end
  $var wire 8 p weight_buf_data[14] [7:0] $end
  $var wire 8 q weight_buf_data[13] [7:0] $end
  $var wire 8 r weight_buf_data[12] [7:0] $end
  $var wire 8 s weight_buf_data[11] [7:0] $end
  $var wire 8 t weight_buf_data[10] [7:0] $end
  $var wire 8 u weight_buf_data[9] [7:0] $end
  $var wire 8 v weight_buf_data[8] [7:0] $end
  $var wire 8 w weight_buf_data[7] [7:0] $end
  $var wire 8 x weight_buf_data[6] [7:0] $end
  $var wire 8 y weight_buf_data[5] [7:0] $end
  $var wire 8 z weight_buf_data[4] [7:0] $end
  $var wire 8 { weight_buf_data[3] [7:0] $end
  $var wire 8 | weight_buf_data[2] [7:0] $end
  $var wire 8 } weight_buf_data[1] [7:0] $end
  $var wire 8 ~ weight_buf_data[0] [7:0] $end
  $var wire 4 !! act_buf_addr [3:0] $end
  $var wire 8 "! act_buf_data[15] [7:0] $end
  $var wire 8 #! act_buf_data[14] [7:0] $end
  $var wire 8 $! act_buf_data[13] [7:0] $end
  $var wire 8 %! act_buf_data[12] [7:0] $end
  $var wire 8 &! act_buf_data[11] [7:0] $end
  $var wire 8 '! act_buf_data[10] [7:0] $end
  $var wire 8 (! act_buf_data[9] [7:0] $end
  $var wire 8 )! act_buf_data[8] [7:0] $end
  $var wire 8 *! act_buf_data[7] [7:0] $end
  $var wire 8 +! act_buf_data[6] [7:0] $end
  $var wire 8 ,! act_buf_data[5] [7:0] $end
  $var wire 8 -! act_buf_data[4] [7:0] $end
  $var wire 8 .! act_buf_data[3] [7:0] $end
  $var wire 8 /! act_buf_data[2] [7:0] $end
  $var wire 8 0! act_buf_data[1] [7:0] $end
  $var wire 8 1! act_buf_data[0] [7:0] $end
  $var wire 8 2! weight_in[15] [7:0] $end
  $var wire 8 3! weight_in[14] [7:0] $end
  $var wire 8 4! weight_in[13] [7:0] $end
  $var wire 8 5! weight_in[12] [7:0] $end
  $var wire 8 6! weight_in[11] [7:0] $end
  $var wire 8 7! weight_in[10] [7:0] $end
  $var wire 8 8! weight_in[9] [7:0] $end
  $var wire 8 9! weight_in[8] [7:0] $end
  $var wire 8 :! weight_in[7] [7:0] $end
  $var wire 8 ;! weight_in[6] [7:0] $end
  $var wire 8 <! weight_in[5] [7:0] $end
  $var wire 8 =! weight_in[4] [7:0] $end
  $var wire 8 >! weight_in[3] [7:0] $end
  $var wire 8 ?! weight_in[2] [7:0] $end
  $var wire 8 @! weight_in[1] [7:0] $end
  $var wire 8 A! weight_in[0] [7:0] $end
  $var wire 1 B! weight_load_en $end
  $var wire 8 C! act_in[15] [7:0] $end
  $var wire 8 D! act_in[14] [7:0] $end
  $var wire 8 E! act_in[13] [7:0] $end
  $var wire 8 F! act_in[12] [7:0] $end
  $var wire 8 G! act_in[11] [7:0] $end
  $var wire 8 H! act_in[10] [7:0] $end
  $var wire 8 I! act_in[9] [7:0] $end
  $var wire 8 J! act_in[8] [7:0] $end
  $var wire 8 K! act_in[7] [7:0] $end
  $var wire 8 L! act_in[6] [7:0] $end
  $var wire 8 M! act_in[5] [7:0] $end
  $var wire 8 N! act_in[4] [7:0] $end
  $var wire 8 O! act_in[3] [7:0] $end
  $var wire 8 P! act_in[2] [7:0] $end
  $var wire 8 Q! act_in[1] [7:0] $end
  $var wire 8 R! act_in[0] [7:0] $end
  $var wire 1 S! row_valid $end
  $var wire 2 T! state [1:0] $end
  $var wire 5 U! cycle [4:0] $end
 $upscope $end
$enddefinitions $end


#0
1"
0#
0$
0%
b0000 &
b00000000 '
b00000000 (
b00000000 )
b00000000 *
b00000000 +
b00000000 ,
b00000000 -
b00000000 .
b00000000 /
b00000000 0
b00000000 1
b00000000 2
b00000000 3
b00000000 4
b00000000 5
b00000000 6
b0000 7
b00000000 8
b00000000 9
b00000000 :
b00000000 ;
b00000000 <
b00000000 =
b00000000 >
b00000000 ?
b00000000 @
b00000000 A
b00000000 B
b00000000 C
b00000000 D
b00000000 E
b00000000 F
b00000000 G
b00000000 H
b00000000 I
b00000000 J
b00000000 K
b00000000 L
b00000000 M
b00000000 N
b00000000 O
b00000000 P
b00000000 Q
b00000000 R
b00000000 S
b00000000 T
b00000000 U
b00000000 V
b00000000 W
0X
b00000000 Y
b00000000 Z
b00000000 [
b00000000 \
b00000000 ]
b00000000 ^
b00000000 _
b00000000 `
b00000000 a
b00000000 b
b00000000 c
b00000000 d
b00000000 e
b00000000 f
b00000000 g
b00000000 h
0i
1j
0k
0l
0m
b0000 n
b00000000 o
b00000000 p
b00000000 q
b00000000 r
b00000000 s
b00000000 t
b00000000 u
b00000000 v
b00000000 w
b00000000 x
b00000000 y
b00000000 z
b00000000 {
b00000000 |
b00000000 }
b00000000 ~
b0000 !!
b00000000 "!
b00000000 #!
b00000000 $!
b00000000 %!
b00000000 &!
b00000000 '!
b00000000 (!
b00000000 )!
b00000000 *!
b00000000 +!
b00000000 ,!
b00000000 -!
b00000000 .!
b00000000 /!
b00000000 0!
b00000000 1!
b00000000 2!
b00000000 3!
b00000000 4!
b00000000 5!
b00000000 6!
b00000000 7!
b00000000 8!
b00000000 9!
b00000000 :!
b00000000 ;!
b00000000 <!
b00000000 =!
b00000000 >!
b00000000 ?!
b00000000 @!
b00000000 A!
0B!
b00000000 C!
b00000000 D!
b00000000 E!
b00000000 F!
b00000000 G!
b00000000 H!
b00000000 I!
b00000000 J!
b00000000 K!
b00000000 L!
b00000000 M!
b00000000 N!
b00000000 O!
b00000000 P!
b00000000 Q!
b00000000 R!
0S!
b00 T!
b00000 U!
#5000
0"
0j
#10000
1"
1#
1j
1k
#15000
0"
0j
#20000
1"
1j
#20001
0#
0k
#25001
0"
0j
#30001
1"
1j
#35001
0"
0j
#40001
1"
1#
1$
1j
1k
1l
#45001
0"
0j
#50001
1"
0$
b1111 &
b00000001 '
b00000001 (
b00000001 )
b00000001 *
b00000001 +
b00000001 ,
b00000001 -
b00000001 .
b00000001 /
b00000001 0
b00000001 1
b00000001 2
b00000001 3
b00000001 4
b00000001 5
b00000001 6
b00000001 8
b00000001 9
b00000001 :
b00000001 ;
b00000001 <
b00000001 =
b00000001 >
b00000001 ?
b00000001 @
b00000001 A
b00000001 B
b00000001 C
b00000001 D
b00000001 E
b00000001 F
b00000001 G
1j
0l
b1111 n
b00000001 o
b00000001 p
b00000001 q
b00000001 r
b00000001 s
b00000001 t
b00000001 u
b00000001 v
b00000001 w
b00000001 x
b00000001 y
b00000001 z
b00000001 {
b00000001 |
b00000001 }
b00000001 ~
b00000001 "!
b00000001 #!
b00000001 $!
b00000001 %!
b00000001 &!
b00000001 '!
b00000001 (!
b00000001 )!
b00000001 *!
b00000001 +!
b00000001 ,!
b00000001 -!
b00000001 .!
b00000001 /!
b00000001 0!
b00000001 1!
b01 T!
#55001
0"
0j
#60001
1"
b1110 &
b0001 7
b00000001 H
b00000001 I
b00000001 J
b00000001 K
b00000001 L
b00000001 M
b00000001 N
b00000001 O
b00000001 P
b00000001 Q
b00000001 R
b00000001 S
b00000001 T
b00000001 U
b00000001 V
b00000001 W
1X
1j
b1110 n
b0001 !!
b00000001 2!
b00000001 3!
b00000001 4!
b00000001 5!
b00000001 6!
b00000001 7!
b00000001 8!
b00000001 9!
b00000001 :!
b00000001 ;!
b00000001 <!
b00000001 =!
b00000001 >!
b00000001 ?!
b00000001 @!
b00000001 A!
1B!
b00001 U!
#65001
0"
0j
#70001
1"
b1101 &
b0010 7
1j
b1101 n
b0010 !!
b00010 U!
#75001
0"
0j
#80001
1"
b1100 &
b0011 7
1j
b1100 n
b0011 !!
b00011 U!
#85001
0"
0j
#90001
1"
b1011 &
b0100 7
1j
b1011 n
b0100 !!
b00100 U!
#95001
0"
0j
#100001
1"
b1010 &
b0101 7
1j
b1010 n
b0101 !!
b00101 U!
#105001
0"
0j
#110001
1"
b1001 &
b0110 7
1j
b1001 n
b0110 !!
b00110 U!
#115001
0"
0j
#120001
1"
b1000 &
b0111 7
1j
b1000 n
b0111 !!
b00111 U!
#125001
0"
0j
#130001
1"
b0111 &
b1000 7
1j
b0111 n
b1000 !!
b01000 U!
#135001
0"
0j
#140001
1"
b0110 &
b1001 7
1j
b0110 n
b1001 !!
b01001 U!
#145001
0"
0j
#150001
1"
b0101 &
b1010 7
1j
b0101 n
b1010 !!
b01010 U!
#155001
0"
0j
#160001
1"
b0100 &
b1011 7
1j
b0100 n
b1011 !!
b01011 U!
#165001
0"
0j
#170001
1"
b0011 &
b1100 7
1j
b0011 n
b1100 !!
b01100 U!
#175001
0"
0j
#180001
1"
b0010 &
b1101 7
1j
b0010 n
b1101 !!
b01101 U!
#185001
0"
0j
#190001
1"
b0001 &
b1110 7
1j
b0001 n
b1110 !!
b01110 U!
#195001
0"
0j
#200001
1"
b0000 &
b1111 7
1j
b0000 n
b1111 !!
b01111 U!
#205001
0"
0j
#210001
1"
b0000 7
b00000000 H
b00000000 I
b00000000 J
b00000000 K
b00000000 L
b00000000 M
b00000000 N
b00000000 O
b00000000 P
b00000000 Q
b00000000 R
b00000000 S
b00000000 T
b00000000 U
b00000000 V
b00000000 W
1j
b0000 !!
b00000000 2!
b00000000 3!
b00000000 4!
b00000000 5!
b00000000 6!
b00000000 7!
b00000000 8!
b00000000 9!
b00000000 :!
b00000000 ;!
b00000000 <!
b00000000 =!
b00000000 >!
b00000000 ?!
b00000000 @!
b00000000 A!
b10 T!
b00000 U!
#215001
0"
0j
#220001
1"
0X
b00000001 h
1j
0B!
b00000001 R!
b00001 U!
#225001
0"
0j
#230001
1"
b00000001 g
1j
b00000001 Q!
b00010 U!
#235001
0"
0j
#240001
1"
b00000001 f
1j
b00000001 P!
b00011 U!
#245001
0"
0j
#250001
1"
b00000001 e
1j
b00000001 O!
b00100 U!
#255001
0"
0j
#260001
1"
b00000001 d
1j
b00000001 N!
b00101 U!
#265001
0"
0j
#270001
1"
b00000001 c
1j
b00000001 M!
b00110 U!
#275001
0"
0j
#280001
1"
b00000001 b
1j
b00000001 L!
b00111 U!
#285001
0"
0j
#290001
1"
b00000001 a
1j
b00000001 K!
b01000 U!
#295001
0"
0j
#300001
1"
b00000001 `
1j
b00000001 J!
b01001 U!
#305001
0"
0j
#310001
1"
b00000001 _
1j
b00000001 I!
b01010 U!
#315001
0"
0j
#320001
1"
b00000001 ^
1j
b00000001 H!
b01011 U!
#325001
0"
0j
#330001
1"
b00000001 ]
1j
b00000001 G!
b01100 U!
#335001
0"
0j
#340001
1"
b00000001 \
1j
b00000001 F!
b01101 U!
#345001
0"
0j
#350001
1"
b00000001 [
1j
b00000001 E!
b01110 U!
#355001
0"
0j
#360001
1"
b00000001 Z
1i
1j
b00000001 D!
1S!
b01111 U!
#365001
0"
0j
#370001
1"
b00000001 Y
1j
b00000001 C!
b10000 U!
#375001
0"
0j
#380001
1"
b00000000 h
1j
b00000000 R!
b10001 U!
#385001
0"
0j
#390001
1"
b00000000 g
1j
b00000000 Q!
b10010 U!
#395001
0"
0j
#400001
1"
b00000000 f
1j
b00000000 P!
b10011 U!
#405001
0"
0j
#410001
1"
b00000000 e
1j
b00000000 O!
b10100 U!
#415001
0"
0j
#420001
1"
b00000000 d
1j
b00000000 N!
b10101 U!
#425001
0"
0j
#430001
1"
b00000000 c
1j
b00000000 M!
b10110 U!
#435001
0"
0j
#440001
1"
b00000000 b
1j
b00000000 L!
b10111 U!
#445001
0"
0j
#450001
1"
b00000000 a
1j
b00000000 K!
b11000 U!
#455001
0"
0j
#460001
1"
b00000000 `
1j
b00000000 J!
b11001 U!
#465001
0"
0j
#470001
1"
b00000000 _
1j
b00000000 I!
b11010 U!
#475001
0"
0j
#480001
1"
b00000000 ^
1j
b00000000 H!
b11011 U!
#485001
0"
0j
#490001
1"
b00000000 ]
1j
b00000000 G!
b11100 U!
#495001
0"
0j
#500001
1"
b00000000 \
1j
b00000000 F!
b11101 U!
#505001
0"
0j
#510001
1"
b00000000 [
1j
b00000000 E!
b11110 U!
#515001
0"
0j
#520001
1"
1%
b00000000 Z
0i
1j
1m
b00000000 D!
0S!
b00 T!
b00000 U!
#525001
0"
0j
#530001
1"
0%
1j
0m
#535001
0"
0j
#540001
1"
1j
#540002
0#
b00000000 '
b00000000 (
b00000000 )
b00000000 *
b00000000 +
b00000000 ,
b00000000 -
b00000000 .
b00000000 /
b00000000 0
b00000000 1
b00000000 2
b00000000 3
b00000000 4
b00000000 5
b00000000 6
b00000000 8
b00000000 9
b00000000 :
b00000000 ;
b00000000 <
b00000000 =
b00000000 >
b00000000 ?
b00000000 @
b00000000 A
b00000000 B
b00000000 C
b00000000 D
b00000000 E
b00000000 F
b00000000 G
0k
b00000000 o
b00000000 p
b00000000 q
b00000000 r
b00000000 s
b00000000 t
b00000000 u
b00000000 v
b00000000 w
b00000000 x
b00000000 y
b00000000 z
b00000000 {
b00000000 |
b00000000 }
b00000000 ~
b00000000 "!
b00000000 #!
b00000000 $!
b00000000 %!
b00000000 &!
b00000000 '!
b00000000 (!
b00000000 )!
b00000000 *!
b00000000 +!
b00000000 ,!
b00000000 -!
b00000000 .!
b00000000 /!
b00000000 0!
b00000000 1!
#545002
0"
0j
#550002
1"
b00000000 Y
1j
b00000000 C!
#555002
0"
0j
#560002
1"
1#
1$
1j
1k
1l
#565002
0"
0j
#570002
1"
0$
b1111 &
1j
0l
b1111 n
b01 T!
#575002
0"
0j
#580002
1"
b1110 &
b0001 7
1X
1j
b1110 n
b0001 !!
1B!
b00001 U!
#585002
0"
0j
#590002
1"
b1101 &
b0010 7
1j
b1101 n
b0010 !!
b00010 U!
#595002
0"
0j
#600002
1"
b1100 &
b0011 7
1j
b1100 n
b0011 !!
b00011 U!
#605002
0"
0j
#610002
1"
b1011 &
b0100 7
1j
b1011 n
b0100 !!
b00100 U!
#615002
0"
0j
#620002
1"
b1010 &
b0101 7
1j
b1010 n
b0101 !!
b00101 U!
#625002
0"
0j
#630002
1"
b1001 &
b0110 7
1j
b1001 n
b0110 !!
b00110 U!
#635002
0"
0j
#640002
1"
b1000 &
b0111 7
1j
b1000 n
b0111 !!
b00111 U!
#645002
0"
0j
#650002
1"
b0111 &
b1000 7
1j
b0111 n
b1000 !!
b01000 U!
#655002
0"
0j
#660002
1"
b0110 &
b1001 7
1j
b0110 n
b1001 !!
b01001 U!
#665002
0"
0j
#670002
1"
b0101 &
b1010 7
1j
b0101 n
b1010 !!
b01010 U!
#675002
0"
0j
#680002
1"
b0100 &
b1011 7
1j
b0100 n
b1011 !!
b01011 U!
#685002
0"
0j
#690002
1"
b0011 &
b1100 7
1j
b0011 n
b1100 !!
b01100 U!
#695002
0"
0j
#700002
1"
b0010 &
b1101 7
1j
b0010 n
b1101 !!
b01101 U!
#705002
0"
0j
#710002
1"
b0001 &
b1110 7
1j
b0001 n
b1110 !!
b01110 U!
#715002
0"
0j
#720002
1"
b0000 &
b1111 7
1j
b0000 n
b1111 !!
b01111 U!
#725002
0"
0j
#730002
1"
b0000 7
1j
b0000 !!
b10 T!
b00000 U!
#735002
0"
0j
#740002
1"
0X
1j
0B!
b00001 U!
#745002
0"
0j
#750002
1"
1j
b00010 U!
#755002
0"
0j
#760002
1"
1j
b00011 U!
#765002
0"
0j
#770002
1"
1j
b00100 U!
#775002
0"
0j
#780002
1"
1j
b00101 U!
#780003
0#
0k
#785003
0"
0j
#790003
1"
1j
b00 T!
b00000 U!
#795003
0"
0j
#800003
1"
1#
1$
1j
1k
1l
#805003
0"
0j
#810003
1"
0$
b1111 &
1j
0l
b1111 n
b01 T!
#815003
0"
0j
#820003
1"
b1110 &
b0001 7
1X
1j
b1110 n
b0001 !!
1B!
b00001 U!
#825003
0"
0j
#830003
1"
b1101 &
b0010 7
1j
b1101 n
b0010 !!
b00010 U!
#835003
0"
0j
#840003
1"
b1100 &
b0011 7
1j
b1100 n
b0011 !!
b00011 U!
#845003
0"
0j
#850003
1"
b1011 &
b0100 7
1j
b1011 n
b0100 !!
b00100 U!
#855003
0"
0j
#860003
1"
b1010 &
b0101 7
1j
b1010 n
b0101 !!
b00101 U!
#865003
0"
0j
#870003
1"
b1001 &
b0110 7
1j
b1001 n
b0110 !!
b00110 U!
#875003
0"
0j
#880003
1"
b1000 &
b0111 7
1j
b1000 n
b0111 !!
b00111 U!
#885003
0"
0j
#890003
1"
b0111 &
b1000 7
1j
b0111 n
b1000 !!
b01000 U!
#895003
0"
0j
#900003
1"
b0110 &
b1001 7
1j
b0110 n
b1001 !!
b01001 U!
#905003
0"
0j
#910003
1"
b0101 &
b1010 7
1j
b0101 n
b1010 !!
b01010 U!
#915003
0"
0j
#920003
1"
b0100 &
b1011 7
1j
b0100 n
b1011 !!
b01011 U!
#925003
0"
0j
#930003
1"
b0011 &
b1100 7
1j
b0011 n
b1100 !!
b01100 U!
#935003
0"
0j
#940003
1"
b0010 &
b1101 7
1j
b0010 n
b1101 !!
b01101 U!
#945003
0"
0j
#950003
1"
b0001 &
b1110 7
1j
b0001 n
b1110 !!
b01110 U!
#955003
0"
0j
#960003
1"
b0000 &
b1111 7
1j
b0000 n
b1111 !!
b01111 U!
#965003
0"
0j
#970003
1"
b0000 7
1j
b0000 !!
b10 T!
b00000 U!
#975003
0"
0j
#980003
1"
0X
1j
0B!
b00001 U!
#985003
0"
0j
#990003
1"
1j
b00010 U!
#995003
0"
0j
#1000003
1"
1j
b00011 U!
#1005003
0"
0j
#1010003
1"
1j
b00100 U!
#1015003
0"
0j
#1020003
1"
1j
b00101 U!
#1025003
0"
0j
#1030003
1"
1j
b00110 U!
#1035003
0"
0j
#1040003
1"
1j
b00111 U!
#1045003
0"
0j
#1050003
1"
1j
b01000 U!
#1055003
0"
0j
#1060003
1"
1j
b01001 U!
#1065003
0"
0j
#1070003
1"
1j
b01010 U!
#1075003
0"
0j
#1080003
1"
1j
b01011 U!
#1085003
0"
0j
#1090003
1"
1j
b01100 U!
#1095003
0"
0j
#1100003
1"
1j
b01101 U!
#1105003
0"
0j
#1110003
1"
1j
b01110 U!
#1115003
0"
0j
#1120003
1"
1i
1j
1S!
b01111 U!
#1125003
0"
0j
#1130003
1"
1j
b10000 U!
#1135003
0"
0j
#1140003
1"
1j
b10001 U!
#1145003
0"
0j
#1150003
1"
1j
b10010 U!
#1155003
0"
0j
#1160003
1"
1j
b10011 U!
#1165003
0"
0j
#1170003
1"
1j
b10100 U!
#1175003
0"
0j
#1180003
1"
1j
b10101 U!
#1185003
0"
0j
#1190003
1"
1j
b10110 U!
#1195003
0"
0j
#1200003
1"
1j
b10111 U!
#1205003
0"
0j
#1210003
1"
1j
b11000 U!
#1215003
0"
0j
#1220003
1"
1j
b11001 U!
#1225003
0"
0j
#1230003
1"
1j
b11010 U!
#1235003
0"
0j
#1240003
1"
1j
b11011 U!
#1245003
0"
0j
#1250003
1"
1j
b11100 U!
#1255003
0"
0j
#1260003
1"
1j
b11101 U!
#1265003
0"
0j
#1270003
1"
1j
b11110 U!
#1275003
0"
0j
#1280003
1"
1%
0i
1j
1m
0S!
b00 T!
b00000 U!
#1285003
0"
0j
#1290003
1"
0%
1j
0m
#1290004
0#
0k
#1295004
0"
0j
#1300004
1"
1j
#1305004
0"
0j
#1310004
1"
1#
1$
1j
1k
1l
#1315004
0"
0j
#1320004
1"
0$
b1111 &
1j
0l
b1111 n
b01 T!
#1325004
0"
0j
#1330004
1"
b1110 &
b0001 7
1X
1j
b1110 n
b0001 !!
1B!
b00001 U!
#1335004
0"
0j
#1340004
1"
b1101 &
b0010 7
1j
b1101 n
b0010 !!
b00010 U!
#1345004
0"
0j
#1350004
1"
b1100 &
b0011 7
1j
b1100 n
b0011 !!
b00011 U!
#1355004
0"
0j
#1360004
1"
b1011 &
b0100 7
1j
b1011 n
b0100 !!
b00100 U!
#1365004
0"
0j
#1370004
1"
b1010 &
b0101 7
1j
b1010 n
b0101 !!
b00101 U!
#1375004
0"
0j
#1380004
1"
b1001 &
b0110 7
1j
b1001 n
b0110 !!
b00110 U!
#1385004
0"
0j
#1390004
1"
b1000 &
b0111 7
1j
b1000 n
b0111 !!
b00111 U!
#1395004
0"
0j
#1400004
1"
b0111 &
b1000 7
1j
b0111 n
b1000 !!
b01000 U!
#1405004
0"
0j
#1410004
1"
b0110 &
b1001 7
1j
b0110 n
b1001 !!
b01001 U!
#1415004
0"
0j
#1420004
1"
b0101 &
b1010 7
1j
b0101 n
b1010 !!
b01010 U!
#1425004
0"
0j
#1430004
1"
b0100 &
b1011 7
1j
b0100 n
b1011 !!
b01011 U!
#1435004
0"
0j
#1440004
1"
b0011 &
b1100 7
1j
b0011 n
b1100 !!
b01100 U!
#1445004
0"
0j
#1450004
1"
b0010 &
b1101 7
1j
b0010 n
b1101 !!
b01101 U!
#1455004
0"
0j
#1460004
1"
b0001 &
b1110 7
1j
b0001 n
b1110 !!
b01110 U!
#1465004
0"
0j
#1470004
1"
b0000 &
b1111 7
1j
b0000 n
b1111 !!
b01111 U!
#1475004
0"
0j
#1480004
1"
b0000 7
1j
b0000 !!
b10 T!
b00000 U!
#1485004
0"
0j
#1490004
1"
0X
1j
0B!
b00001 U!
#1490005
0#
0k
#1495005
0"
0j
#1500005
1"
1j
b00 T!
b00000 U!
#1505005
0"
0j
#1510005
1"
1#
1$
1j
1k
1l
#1515005
0"
0j
#1520005
1"
0$
b1111 &
b00001111 8
b00001110 9
b00001101 :
b00001100 ;
b00001011 <
b00001010 =
b00001001 >
b00001000 ?
b00000111 @
b00000110 A
b00000101 B
b00000100 C
b00000011 D
b00000010 E
b00000001 F
1j
0l
b1111 n
b00001111 "!
b00001110 #!
b00001101 $!
b00001100 %!
b00001011 &!
b00001010 '!
b00001001 (!
b00001000 )!
b00000111 *!
b00000110 +!
b00000101 ,!
b00000100 -!
b00000011 .!
b00000010 /!
b00000001 0!
b01 T!
#1525005
0"
0j
#1530005
1"
b1110 &
b0001 7
1X
1j
b1110 n
b0001 !!
1B!
b00001 U!
#1535005
0"
b00011111 8
b00011110 9
b00011101 :
b00011100 ;
b00011011 <
b00011010 =
b00011001 >
b00011000 ?
b00010111 @
b00010110 A
b00010101 B
b00010100 C
b00010011 D
b00010010 E
b00010001 F
b00010000 G
0j
b00011111 "!
b00011110 #!
b00011101 $!
b00011100 %!
b00011011 &!
b00011010 '!
b00011001 (!
b00011000 )!
b00010111 *!
b00010110 +!
b00010101 ,!
b00010100 -!
b00010011 .!
b00010010 /!
b00010001 0!
b00010000 1!
#1540005
1"
b1101 &
b0010 7
1j
b1101 n
b0010 !!
b00010 U!
#1545005
0"
b00101111 8
b00101110 9
b00101101 :
b00101100 ;
b00101011 <
b00101010 =
b00101001 >
b00101000 ?
b00100111 @
b00100110 A
b00100101 B
b00100100 C
b00100011 D
b00100010 E
b00100001 F
b00100000 G
0j
b00101111 "!
b00101110 #!
b00101101 $!
b00101100 %!
b00101011 &!
b00101010 '!
b00101001 (!
b00101000 )!
b00100111 *!
b00100110 +!
b00100101 ,!
b00100100 -!
b00100011 .!
b00100010 /!
b00100001 0!
b00100000 1!
#1550005
1"
b1100 &
b0011 7
1j
b1100 n
b0011 !!
b00011 U!
#1555005
0"
b00111111 8
b00111110 9
b00111101 :
b00111100 ;
b00111011 <
b00111010 =
b00111001 >
b00111000 ?
b00110111 @
b00110110 A
b00110101 B
b00110100 C
b00110011 D
b00110010 E
b00110001 F
b00110000 G
0j
b00111111 "!
b00111110 #!
b00111101 $!
b00111100 %!
b00111011 &!
b00111010 '!
b00111001 (!
b00111000 )!
b00110111 *!
b00110110 +!
b00110101 ,!
b00110100 -!
b00110011 .!
b00110010 /!
b00110001 0!
b00110000 1!
#1560005
1"
b1011 &
b0100 7
1j
b1011 n
b0100 !!
b00100 U!
#1565005
0"
b01001111 8
b01001110 9
b01001101 :
b01001100 ;
b01001011 <
b01001010 =
b01001001 >
b01001000 ?
b01000111 @
b01000110 A
b01000101 B
b01000100 C
b01000011 D
b01000010 E
b01000001 F
b01000000 G
0j
b01001111 "!
b01001110 #!
b01001101 $!
b01001100 %!
b01001011 &!
b01001010 '!
b01001001 (!
b01001000 )!
b01000111 *!
b01000110 +!
b01000101 ,!
b01000100 -!
b01000011 .!
b01000010 /!
b01000001 0!
b01000000 1!
#1570005
1"
b1010 &
b0101 7
1j
b1010 n
b0101 !!
b00101 U!
#1575005
0"
b01011111 8
b01011110 9
b01011101 :
b01011100 ;
b01011011 <
b01011010 =
b01011001 >
b01011000 ?
b01010111 @
b01010110 A
b01010101 B
b01010100 C
b01010011 D
b01010010 E
b01010001 F
b01010000 G
0j
b01011111 "!
b01011110 #!
b01011101 $!
b01011100 %!
b01011011 &!
b01011010 '!
b01011001 (!
b01011000 )!
b01010111 *!
b01010110 +!
b01010101 ,!
b01010100 -!
b01010011 .!
b01010010 /!
b01010001 0!
b01010000 1!
#1580005
1"
b1001 &
b0110 7
1j
b1001 n
b0110 !!
b00110 U!
#1585005
0"
b01101111 8
b01101110 9
b01101101 :
b01101100 ;
b01101011 <
b01101010 =
b01101001 >
b01101000 ?
b01100111 @
b01100110 A
b01100101 B
b01100100 C
b01100011 D
b01100010 E
b01100001 F
b01100000 G
0j
b01101111 "!
b01101110 #!
b01101101 $!
b01101100 %!
b01101011 &!
b01101010 '!
b01101001 (!
b01101000 )!
b01100111 *!
b01100110 +!
b01100101 ,!
b01100100 -!
b01100011 .!
b01100010 /!
b01100001 0!
b01100000 1!
#1590005
1"
b1000 &
b0111 7
1j
b1000 n
b0111 !!
b00111 U!
