sim/csr_block/dump.vcd
$version Generated by VerilatedVcd $end
$timescale 1ps $end
 $scope module $rootio $end
  $var wire 1 " clk $end
  $var wire 1 # rst_n $end
  $var wire 32 $ awaddr [31:0] $end
  $var wire 3 % awprot [2:0] $end
  $var wire 1 & awvalid $end
  $var wire 1 ' awready $end
  $var wire 32 ( wdata [31:0] $end
  $var wire 4 ) wstrb [3:0] $end
  $var wire 1 * wvalid $end
  $var wire 1 + wready $end
  $var wire 2 , bresp [1:0] $end
  $var wire 1 - bvalid $end
  $var wire 1 . bready $end
  $var wire 32 / araddr [31:0] $end
  $var wire 3 0 arprot [2:0] $end
  $var wire 1 1 arvalid $end
  $var wire 1 2 arready $end
  $var wire 32 3 rdata [31:0] $end
  $var wire 2 4 rresp [1:0] $end
  $var wire 1 5 rvalid $end
  $var wire 1 6 rready $end
  $var wire 1 7 go $end
  $var wire 8 8 m_tiles [7:0] $end
  $var wire 8 9 n_tiles [7:0] $end
  $var wire 8 : k_tiles [7:0] $end
  $var wire 1 ; ts_busy $end
  $var wire 1 < ts_done $end
 $upscope $end
 $scope module csr_block_wrap $end
  $var wire 1 = clk $end
  $var wire 1 > rst_n $end
  $var wire 32 ? awaddr [31:0] $end
  $var wire 3 @ awprot [2:0] $end
  $var wire 1 A awvalid $end
  $var wire 1 B awready $end
  $var wire 32 C wdata [31:0] $end
  $var wire 4 D wstrb [3:0] $end
  $var wire 1 E wvalid $end
  $var wire 1 F wready $end
  $var wire 2 G bresp [1:0] $end
  $var wire 1 H bvalid $end
  $var wire 1 I bready $end
  $var wire 32 J araddr [31:0] $end
  $var wire 3 K arprot [2:0] $end
  $var wire 1 L arvalid $end
  $var wire 1 M arready $end
  $var wire 32 N rdata [31:0] $end
  $var wire 2 O rresp [1:0] $end
  $var wire 1 P rvalid $end
  $var wire 1 Q rready $end
  $var wire 1 R go $end
  $var wire 8 S m_tiles [7:0] $end
  $var wire 8 T n_tiles [7:0] $end
  $var wire 8 U k_tiles [7:0] $end
  $var wire 1 V ts_busy $end
  $var wire 1 W ts_done $end
  $scope module csr_axi $end
   $var wire 32 !! ADDR_WIDTH [31:0] $end
   $var wire 32 !! DATA_WIDTH [31:0] $end
   $var wire 1 j aclk $end
   $var wire 1 k aresetn $end
   $var wire 1 l awvalid $end
   $var wire 1 m awready $end
   $var wire 32 n awaddr [31:0] $end
   $var wire 3 o awprot [2:0] $end
   $var wire 1 p wvalid $end
   $var wire 1 q wready $end
   $var wire 32 r wdata [31:0] $end
   $var wire 4 s wstrb [3:0] $end
   $var wire 1 t bvalid $end
   $var wire 1 u bready $end
   $var wire 2 v bresp [1:0] $end
   $var wire 1 w arvalid $end
   $var wire 1 x arready $end
   $var wire 32 y araddr [31:0] $end
   $var wire 3 z arprot [2:0] $end
   $var wire 1 { rvalid $end
   $var wire 1 | rready $end
   $var wire 32 } rdata [31:0] $end
   $var wire 2 ~ rresp [1:0] $end
  $upscope $end
  $scope module dut $end
   $var wire 1 X go $end
   $var wire 8 Y m_tiles [7:0] $end
   $var wire 8 Z n_tiles [7:0] $end
   $var wire 8 [ k_tiles [7:0] $end
   $var wire 1 \ ts_busy $end
   $var wire 1 ] ts_done $end
   $var wire 1 ^ clk $end
   $var wire 1 _ rst_n $end
   $var wire 1 ` reg_go $end
   $var wire 8 a reg_m_tiles [7:0] $end
   $var wire 8 b reg_n_tiles [7:0] $end
   $var wire 8 c reg_k_tiles [7:0] $end
   $var wire 1 d reg_done $end
   $var wire 5 e wr_addr_lat [4:0] $end
   $var wire 32 f wr_data_lat [31:0] $end
   $var wire 1 g wr_commit $end
   $var wire 2 h wr_state [1:0] $end
   $var wire 1 i rd_state $end
   $scope module csr_axi $end
    $var wire 32 !! ADDR_WIDTH [31:0] $end
    $var wire 32 !! DATA_WIDTH [31:0] $end
    $var wire 1 j aclk $end
    $var wire 1 k aresetn $end
    $var wire 1 l awvalid $end
    $var wire 1 m awready $end
    $var wire 32 n awaddr [31:0] $end
    $var wire 3 o awprot [2:0] $end
    $var wire 1 p wvalid $end
    $var wire 1 q wready $end
    $var wire 32 r wdata [31:0] $end
    $var wire 4 s wstrb [3:0] $end
    $var wire 1 t bvalid $end
    $var wire 1 u bready $end
    $var wire 2 v bresp [1:0] $end
    $var wire 1 w arvalid $end
    $var wire 1 x arready $end
    $var wire 32 y araddr [31:0] $end
    $var wire 3 z arprot [2:0] $end
    $var wire 1 { rvalid $end
    $var wire 1 | rready $end
    $var wire 32 } rdata [31:0] $end
    $var wire 2 ~ rresp [1:0] $end
   $upscope $end
  $upscope $end
 $upscope $end
$enddefinitions $end


#0
1"
0#
b00000000000000000000000000000000 $
b000 %
0&
0'
b00000000000000000000000000000000 (
b0000 )
0*
0+
b00 ,
0-
0.
b00000000000000000000000000000000 /
b000 0
01
02
b00000000000000000000000000000000 3
b00 4
05
06
07
b00000001 8
b00000001 9
b00000001 :
0;
0<
1=
0>
b00000000000000000000000000000000 ?
b000 @
0A
0B
b00000000000000000000000000000000 C
b0000 D
0E
0F
b00 G
0H
0I
b00000000000000000000000000000000 J
b000 K
0L
0M
b00000000000000000000000000000000 N
b00 O
0P
0Q
0R
b00000001 S
b00000001 T
b00000001 U
0V
0W
0X
b00000001 Y
b00000001 Z
b00000001 [
0\
0]
1^
0_
0`
b00000001 a
b00000001 b
b00000001 c
0d
b00000 e
b00000000000000000000000000000000 f
0g
b00 h
0i
1j
0k
0l
0m
b00000000000000000000000000000000 n
b000 o
0p
0q
b00000000000000000000000000000000 r
b0000 s
0t
0u
b00 v
0w
0x
b00000000000000000000000000000000 y
b000 z
0{
0|
b00000000000000000000000000000000 }
b00 ~
b00000000000000000000000000100000 !!
#5000
0"
0=
0^
0j
#10000
1"
1#
1=
1>
1^
1_
1j
1k
#15000
0"
0=
0^
0j
#20000
1"
1'
1+
12
1=
1B
1F
1M
1^
1j
1m
1q
1x
#25000
0"
0=
0^
0j
#30000
1"
b00000000000000000000000000010000 /
11
1=
b00000000000000000000000000010000 J
1L
1^
1j
1w
b00000000000000000000000000010000 y
#35000
0"
0=
0^
0j
#40000
1"
01
02
15
1=
0L
0M
1P
1^
1i
1j
0w
0x
1{
#45000
0"
0=
0^
0j
#50000
1"
16
1=
1Q
1^
1j
1|
#55000
0"
0=
0^
0j
#60000
1"
05
06
1=
0P
0Q
1^
0i
1j
0{
0|
#65000
0"
0=
0^
0j
#70000
1"
b00000000000000000000000000000000 /
11
12
1=
b00000000000000000000000000000000 J
1L
1M
1^
1j
1w
1x
b00000000000000000000000000000000 y
#75000
0"
0=
0^
0j
#80000
1"
02
15
1=
0M
1P
1^
1i
1j
0x
1{
#85000
0"
0=
0^
0j
#90000
1"
01
16
1=
0L
1Q
1^
1j
0w
1|
#95000
0"
0=
0^
0j
#100000
1"
05
06
1=
0P
0Q
1^
0i
1j
0{
0|
#105000
0"
0=
0^
0j
#110000
1"
12
1=
1M
1^
1j
1x
#110001
0#
0>
0_
0k
#115001
0"
0=
0^
0j
#120001
1"
0'
0+
02
1=
0B
0F
0M
1^
1j
0m
0q
0x
#125001
0"
0=
0^
0j
#130001
1"
1#
1=
1>
1^
1_
1j
1k
#135001
0"
0=
0^
0j
#140001
1"
1'
1+
12
1=
1B
1F
1M
1^
1j
1m
1q
1x
#145001
0"
0=
0^
0j
#150001
1"
b00000000000000000000000000000100 $
1&
b00000000000000000000000000000100 (
b1111 )
1*
1=
b00000000000000000000000000000100 ?
1A
b00000000000000000000000000000100 C
b1111 D
1E
1^
1j
1l
b00000000000000000000000000000100 n
1p
b00000000000000000000000000000100 r
b1111 s
#155001
0"
0=
0^
0j
#160001
1"
0&
0'
0*
0+
1=
0A
0B
0E
0F
1^
b00100 e
b00000000000000000000000000000100 f
b11 h
1j
0l
0m
0p
0q
#165001
0"
0=
0^
0j
#170001
1"
1-
1=
1H
1^
1j
1t
#175001
0"
0=
0^
0j
#180001
1"
1.
1=
1I
1^
1g
1j
1u
#185001
0"
0=
0^
0j
#190001
1"
0-
0.
b00000100 8
1=
0H
0I
b00000100 S
b00000100 Y
1^
b00000100 a
0g
b00 h
1j
0t
0u
#195001
0"
0=
0^
0j
#200001
1"
b00000000000000000000000000001000 $
1&
1'
b00000000000000000000000000001000 (
1*
1+
1=
b00000000000000000000000000001000 ?
1A
1B
b00000000000000000000000000001000 C
1E
1F
1^
1j
1l
1m
b00000000000000000000000000001000 n
1p
1q
b00000000000000000000000000001000 r
#205001
0"
0=
0^
0j
#210001
1"
0'
0+
1=
0B
0F
1^
b01000 e
b00000000000000000000000000001000 f
b11 h
1j
0m
0q
#215001
0"
0=
0^
0j
#220001
1"
0&
0*
1-
1=
0A
0E
1H
1^
1j
0l
0p
1t
#225001
0"
0=
0^
0j
#230001
1"
1.
1=
1I
1^
1g
1j
1u
#235001
0"
0=
0^
0j
#240001
1"
0-
0.
b00001000 9
1=
0H
0I
b00001000 T
b00001000 Z
1^
b00001000 b
0g
b00 h
1j
0t
0u
#245001
0"
0=
0^
0j
#250001
1"
b00000000000000000000000000001100 $
1&
1'
b00000000000000000000000000000010 (
1*
1+
1=
b00000000000000000000000000001100 ?
1A
1B
b00000000000000000000000000000010 C
1E
1F
1^
1j
1l
1m
b00000000000000000000000000001100 n
1p
1q
b00000000000000000000000000000010 r
#255001
0"
0=
0^
0j
#260001
1"
0'
0+
1=
0B
0F
1^
b01100 e
b00000000000000000000000000000010 f
b11 h
1j
0m
0q
#265001
0"
0=
0^
0j
#270001
1"
0&
0*
1-
1=
0A
0E
1H
1^
1j
0l
0p
1t
#275001
0"
0=
0^
0j
#280001
1"
1.
1=
1I
1^
1g
1j
1u
#285001
0"
0=
0^
0j
#290001
1"
0-
0.
b00000010 :
1=
0H
0I
b00000010 U
b00000010 [
1^
b00000010 c
0g
b00 h
1j
0t
0u
#295001
0"
0=
0^
0j
#300001
1"
1'
1+
b00000000000000000000000000000100 /
11
1=
1B
1F
b00000000000000000000000000000100 J
1L
1^
1j
1m
1q
1w
b00000000000000000000000000000100 y
#305001
0"
0=
0^
0j
#310001
1"
01
02
b00000000000000000000000000000100 3
15
1=
0L
0M
b00000000000000000000000000000100 N
1P
1^
1i
1j
0w
0x
1{
b00000000000000000000000000000100 }
#315001
0"
0=
0^
0j
#320001
1"
16
1=
1Q
1^
1j
1|
#325001
0"
0=
0^
0j
#330001
1"
05
06
1=
0P
0Q
1^
0i
1j
0{
0|
#335001
0"
0=
0^
0j
#340001
1"
b00000000000000000000000000001000 /
11
12
1=
b00000000000000000000000000001000 J
1L
1M
1^
1j
1w
1x
b00000000000000000000000000001000 y
#345001
0"
0=
0^
0j
#350001
1"
02
b00000000000000000000000000001000 3
15
1=
0M
b00000000000000000000000000001000 N
1P
1^
1i
1j
0x
1{
b00000000000000000000000000001000 }
#355001
0"
0=
0^
0j
#360001
1"
01
16
1=
0L
1Q
1^
1j
0w
1|
#365001
0"
0=
0^
0j
#370001
1"
05
06
1=
0P
0Q
1^
0i
1j
0{
0|
#375001
0"
0=
0^
0j
#380001
1"
b00000000000000000000000000001100 /
11
12
1=
b00000000000000000000000000001100 J
1L
1M
1^
1j
1w
1x
b00000000000000000000000000001100 y
#385001
0"
0=
0^
0j
#390001
1"
02
b00000000000000000000000000000010 3
15
1=
0M
b00000000000000000000000000000010 N
1P
1^
1i
1j
0x
1{
b00000000000000000000000000000010 }
#395001
0"
0=
0^
0j
#400001
1"
01
16
1=
0L
1Q
1^
1j
0w
1|
#405001
0"
0=
0^
0j
#410001
1"
05
06
1=
0P
0Q
1^
0i
1j
0{
0|
#415001
0"
0=
0^
0j
#420001
1"
12
1=
1M
1^
1j
1x
#420002
0#
b00000000000000000000000000000000 $
b00000000000000000000000000000000 (
b0000 )
b00000000000000000000000000000000 /
0>
b00000000000000000000000000000000 ?
b00000000000000000000000000000000 C
b0000 D
b00000000000000000000000000000000 J
0_
0k
b00000000000000000000000000000000 n
b00000000000000000000000000000000 r
b0000 s
b00000000000000000000000000000000 y
#425002
0"
0=
0^
0j
#430002
1"
0'
0+
02
b00000000000000000000000000000000 3
b00000001 8
b00000001 9
b00000001 :
1=
0B
0F
0M
b00000000000000000000000000000000 N
b00000001 S
b00000001 T
b00000001 U
b00000001 Y
b00000001 Z
b00000001 [
1^
b00000001 a
b00000001 b
b00000001 c
b00000 e
b00000000000000000000000000000000 f
1j
0m
0q
0x
b00000000000000000000000000000000 }
#435002
0"
0=
0^
0j
#440002
1"
1#
1=
1>
1^
1_
1j
1k
#445002
0"
0=
0^
0j
#450002
1"
1'
1+
12
1=
1B
1F
1M
1^
1j
1m
1q
1x
#455002
0"
0=
0^
0j
#460002
1"
1&
b1111 )
1*
1=
1A
b1111 D
1E
1^
1j
1l
1p
b1111 s
#465002
0"
0=
0^
0j
#470002
1"
0&
0'
0*
0+
1=
0A
0B
0E
0F
1^
b11 h
1j
0l
0m
0p
0q
#475002
0"
0=
0^
0j
#480002
1"
1-
1=
1H
1^
1j
1t
#485002
0"
0=
0^
0j
#490002
1"
1.
1=
1I
1^
1g
1j
1u
#495002
0"
0=
0^
0j
#500002
1"
0-
0.
1=
0H
0I
1^
0g
b00 h
1j
0t
0u
#505002
0"
0=
0^
0j
#510002
1"
1'
1+
1=
1B
1F
1^
1j
1m
1q
#510003
0#
b0000 )
0>
b0000 D
0_
0k
b0000 s
#515003
0"
0=
0^
0j
#520003
1"
0'
0+
02
1=
0B
0F
0M
1^
1j
0m
0q
0x
#525003
0"
0=
0^
0j
#530003
1"
1#
1=
1>
1^
1_
1j
1k
#535003
0"
0=
0^
0j
#540003
1"
1'
1+
12
1=
1B
1F
1M
1^
1j
1m
1q
1x
#545003
0"
0=
0^
0j
#550003
1"
1&
b00000000000000000000000000000001 (
b1111 )
1*
1=
1A
b00000000000000000000000000000001 C
b1111 D
1E
1^
1j
1l
1p
b00000000000000000000000000000001 r
b1111 s
#555003
0"
0=
0^
0j
#560003
1"
0&
0'
0*
0+
1=
0A
0B
0E
0F
1^
b00000000000000000000000000000001 f
b11 h
1j
0l
0m
0p
0q
#565003
0"
0=
0^
0j
#570003
1"
1-
1=
1H
1^
1j
1t
#575003
0"
0=
0^
0j
#580003
1"
1.
1=
1I
1^
1g
1j
1u
#585003
0"
0=
0^
0j
#590003
1"
0-
17
1=
0H
1R
1X
1^
1`
0g
b00 h
1j
0t
#595003
0"
0=
0^
0j
#600003
1"
1'
1+
0.
07
1=
1B
1F
0I
0R
0X
1^
0`
1j
1m
1q
0u
#605003
0"
0=
0^
0j
#610003
1"
1=
1^
1j
#610004
0#
b00000000000000000000000000000000 (
b0000 )
0>
b00000000000000000000000000000000 C
b0000 D
0_
0k
b00000000000000000000000000000000 r
b0000 s
#615004
0"
0=
0^
0j
#620004
1"
0'
0+
02
1=
0B
0F
0M
1^
b00000000000000000000000000000000 f
1j
0m
0q
0x
#625004
0"
0=
0^
0j
#630004
1"
1#
1=
1>
1^
1_
1j
1k
#635004
0"
0=
0^
0j
#640004
1"
1'
1+
12
1=
1B
1F
1M
1^
1j
1m
1q
1x
#645004
0"
0=
0^
0j
#650004
1"
1&
b00000000000000000000000000000001 (
b1111 )
1*
1;
1=
1A
b00000000000000000000000000000001 C
b1111 D
1E
1V
1\
1^
1j
1l
1p
b00000000000000000000000000000001 r
b1111 s
#655004
0"
0=
0^
0j
#660004
1"
0&
0'
0*
0+
1=
0A
0B
0E
0F
1^
b00000000000000000000000000000001 f
b11 h
1j
0l
0m
0p
0q
#665004
0"
0=
0^
0j
#670004
1"
1-
1=
1H
1^
1j
1t
#675004
0"
0=
0^
0j
#680004
1"
1.
1=
1I
1^
1g
1j
1u
#685004
0"
0=
0^
0j
#690004
1"
0-
0.
1=
0H
0I
1^
0g
b00 h
1j
0t
0u
#695004
0"
0=
0^
0j
#700004
1"
1'
1+
1=
1B
1F
1^
1j
1m
1q
#700005
0#
b00000000000000000000000000000000 (
b0000 )
0;
0>
b00000000000000000000000000000000 C
b0000 D
0V
0\
0_
0k
b00000000000000000000000000000000 r
b0000 s
#705005
0"
0=
0^
0j
#710005
1"
0'
0+
02
1=
0B
0F
0M
1^
b00000000000000000000000000000000 f
1j
0m
0q
0x
#715005
0"
0=
0^
0j
#720005
1"
1#
1=
1>
1^
1_
1j
1k
#725005
0"
0=
0^
0j
#730005
1"
1'
1+
12
1=
1B
1F
1M
1^
1j
1m
1q
1x
#735005
0"
0=
0^
0j
#740005
1"
11
1;
1=
1L
1V
1\
1^
1j
1w
#745005
0"
0=
0^
0j
#750005
1"
01
02
b00000000000000000000000000000010 3
15
1=
0L
0M
b00000000000000000000000000000010 N
1P
1^
1i
1j
0w
0x
1{
b00000000000000000000000000000010 }
#755005
0"
0=
0^
0j
#760005
1"
16
1=
1Q
1^
1j
1|
#765005
0"
0=
0^
0j
#770005
1"
05
06
1=
0P
0Q
1^
0i
1j
0{
0|
#775005
0"
0=
0^
0j
#780005
1"
11
12
0;
1=
1L
1M
0V
0\
1^
1j
1w
1x
#785005
0"
0=
0^
0j
#790005
1"
02
b00000000000000000000000000000000 3
15
1=
0M
b00000000000000000000000000000000 N
1P
1^
1i
1j
0x
1{
b00000000000000000000000000000000 }
#795005
0"
0=
0^
0j
#800005
1"
01
16
1=
0L
1Q
1^
1j
0w
1|
#805005
0"
0=
0^
0j
#810005
1"
05
06
1=
0P
0Q
1^
0i
1j
0{
0|
#815005
0"
0=
0^
0j
#820005
1"
12
1=
1M
1^
1j
1x
#820006
0#
0>
0_
0k
#825006
0"
0=
0^
0j
#830006
1"
0'
0+
02
1=
0B
0F
0M
1^
1j
0m
0q
0x
#835006
0"
0=
0^
0j
#840006
1"
1#
1=
1>
1^
1_
1j
1k
#845006
0"
0=
0^
0j
#850006
1"
1'
1+
12
1=
1B
1F
1M
1^
1j
1m
1q
1x
#855006
0"
0=
0^
0j
#860006
1"
1<
1=
1W
1]
1^
1j
#865006
0"
0=
0^
0j
#870006
1"
0<
1=
0W
0]
1^
1d
1j
#875006
0"
0=
0^
0j
#880006
1"
b00000000000000000000000000010000 /
11
1=
b00000000000000000000000000010000 J
1L
1^
1j
1w
b00000000000000000000000000010000 y
#885006
0"
0=
0^
0j
#890006
1"
01
02
b00000000000000000000000000000001 3
15
1=
0L
0M
b00000000000000000000000000000001 N
1P
1^
1i
1j
0w
0x
1{
b00000000000000000000000000000001 }
#895006
0"
0=
0^
0j
#900006
1"
16
1=
1Q
1^
1j
1|
#905006
0"
0=
0^
0j
#910006
1"
05
06
1=
0P
0Q
1^
0i
1j
0{
0|
#915006
0"
0=
0^
0j
#920006
1"
12
1=
1M
1^
1j
1x
#920007
0#
b00000000000000000000000000000000 /
0>
b00000000000000000000000000000000 J
0_
0k
b00000000000000000000000000000000 y
#925007
0"
0=
0^
0j
#930007
1"
0'
0+
02
b00000000000000000000000000000000 3
1=
0B
0F
0M
b00000000000000000000000000000000 N
1^
0d
1j
0m
0q
0x
b00000000000000000000000000000000 }
#935007
0"
0=
0^
0j
#940007
1"
1#
1=
1>
1^
1_
1j
1k
#945007
0"
0=
0^
0j
#950007
1"
1'
1+
12
1=
1B
1F
1M
1^
1j
1m
1q
1x
#955007
0"
0=
0^
0j
#960007
1"
1<
1=
1W
1]
1^
1j
#965007
0"
0=
0^
0j
#970007
1"
0<
1=
0W
0]
1^
1d
1j
#975007
0"
0=
0^
0j
#980007
1"
b00000000000000000000000000010000 /
11
1=
b00000000000000000000000000010000 J
1L
1^
1j
1w
b00000000000000000000000000010000 y
#985007
0"
0=
0^
0j
#990007
1"
01
02
b00000000000000000000000000000001 3
15
1=
0L
0M
b00000000000000000000000000000001 N
1P
1^
1i
1j
0w
0x
1{
b00000000000000000000000000000001 }
#995007
0"
0=
0^
0j
#1000007
1"
16
1=
1Q
1^
1j
1|
#1005007
0"
0=
0^
0j
#1010007
1"
05
06
1=
0P
0Q
1^
0i
1j
0{
0|
#1015007
0"
0=
0^
0j
#1020007
1"
1&
b00000000000000000000000000000001 (
b1111 )
1*
12
1=
1A
b00000000000000000000000000000001 C
b1111 D
1E
1M
1^
1j
1l
1p
b00000000000000000000000000000001 r
b1111 s
1x
#1025007
0"
0=
0^
0j
#1030007
1"
0&
0'
0*
0+
1=
0A
0B
0E
0F
1^
b00000000000000000000000000000001 f
b11 h
1j
0l
0m
0p
0q
#1035007
0"
0=
0^
0j
#1040007
1"
1-
1=
1H
1^
1j
1t
#1045007
0"
0=
0^
0j
#1050007
1"
1.
1=
1I
1^
1g
1j
1u
#1055007
0"
0=
0^
0j
#1060007
1"
0-
0.
17
1=
0H
0I
1R
1X
1^
1`
0d
0g
b00 h
1j
0t
0u
#1065007
0"
0=
0^
0j
#1070007
1"
1'
1+
11
07
1=
1B
1F
1L
0R
0X
1^
0`
1j
1m
1q
1w
#1075007
0"
0=
0^
0j
#1080007
1"
01
02
b00000000000000000000000000000000 3
15
1=
0L
0M
b00000000000000000000000000000000 N
1P
1^
1i
1j
0w
0x
1{
b00000000000000000000000000000000 }
#1085007
0"
0=
0^
0j
#1090007
1"
16
1=
1Q
1^
1j
1|
#1095007
0"
0=
0^
0j
#1100007
1"
05
06
1=
0P
0Q
1^
0i
1j
0{
0|
#1105007
0"
0=
0^
0j
#1110007
1"
12
1=
1M
1^
1j
1x
#1110008
0#
b00000000000000000000000000000000 (
b0000 )
b00000000000000000000000000000000 /
0>
b00000000000000000000000000000000 C
b0000 D
b00000000000000000000000000000000 J
0_
0k
b00000000000000000000000000000000 r
b0000 s
b00000000000000000000000000000000 y
#1115008
0"
0=
0^
0j
#1120008
1"
0'
0+
02
1=
0B
0F
0M
1^
b00000000000000000000000000000000 f
1j
0m
0q
0x
#1125008
0"
0=
0^
0j
#1130008
1"
1#
1=
1>
1^
1_
1j
1k
#1135008
0"
0=
0^
0j
#1140008
1"
1'
1+
12
1=
1B
1F
1M
1^
1j
1m
1q
1x
#1145008
0"
0=
0^
0j
#1150008
1"
b00000000000000000000000000010000 $
1&
b11111111111111111111111111111111 (
b1111 )
1*
1=
b00000000000000000000000000010000 ?
1A
b11111111111111111111111111111111 C
b1111 D
1E
1^
1j
1l
b00000000000000000000000000010000 n
1p
b11111111111111111111111111111111 r
b1111 s
#1155008
0"
0=
0^
0j
#1160008
1"
0&
0'
0*
0+
1=
0A
0B
0E
0F
1^
b10000 e
b11111111111111111111111111111111 f
b11 h
1j
0l
0m
0p
0q
#1165008
0"
0=
0^
0j
#1170008
1"
1-
1=
1H
1^
1j
1t
#1175008
0"
0=
0^
0j
#1180008
1"
1.
1=
1I
1^
1g
1j
1u
#1185008
0"
0=
0^
0j
#1190008
1"
0-
0.
1=
0H
0I
1^
0g
b00 h
1j
0t
0u
#1195008
0"
0=
0^
0j
#1200008
1"
1'
1+
b00000000000000000000000000010000 /
11
1=
1B
1F
b00000000000000000000000000010000 J
1L
1^
1j
1m
1q
1w
b00000000000000000000000000010000 y
#1205008
0"
0=
0^
0j
#1210008
1"
01
02
15
1=
0L
0M
1P
1^
1i
1j
0w
0x
1{
#1215008
0"
0=
0^
0j
#1220008
1"
16
1=
1Q
1^
1j
1|
#1225008
0"
0=
0^
0j
#1230008
1"
05
06
1=
0P
0Q
1^
0i
1j
0{
0|
#1235008
0"
0=
0^
0j
#1240008
1"
12
1=
1M
1^
1j
1x
#1240009
0#
b00000000000000000000000000000000 $
b00000000000000000000000000000000 (
b0000 )
b00000000000000000000000000000000 /
0>
b00000000000000000000000000000000 ?
b00000000000000000000000000000000 C
b0000 D
b00000000000000000000000000000000 J
0_
0k
b00000000000000000000000000000000 n
b00000000000000000000000000000000 r
b0000 s
b00000000000000000000000000000000 y
#1245009
0"
0=
0^
0j
#1250009
1"
0'
0+
02
1=
0B
0F
0M
1^
b00000 e
b00000000000000000000000000000000 f
1j
0m
0q
0x
#1255009
0"
0=
0^
0j
#1260009
1"
1#
1=
1>
1^
1_
1j
1k
#1265009
0"
0=
0^
0j
#1270009
1"
1'
1+
12
1=
1B
1F
1M
1^
1j
1m
1q
1x
#1275009
0"
0=
0^
0j
#1280009
1"
b00000000000000000000000000000100 $
1&
1=
b00000000000000000000000000000100 ?
1A
1^
1j
1l
b00000000000000000000000000000100 n
#1285009
0"
0=
0^
0j
#1290009
1"
0&
0'
b00000000000000000000000000000111 (
b1111 )
1*
1=
0A
0B
b00000000000000000000000000000111 C
b1111 D
1E
1^
b00100 e
b01 h
1j
0l
0m
1p
b00000000000000000000000000000111 r
b1111 s
#1295009
0"
0=
0^
0j
#1300009
1"
0*
0+
1=
0E
0F
1^
b00000000000000000000000000000111 f
b11 h
1j
0p
0q
#1305009
0"
0=
0^
0j
#1310009
1"
1-
1=
1H
1^
1j
1t
#1315009
0"
0=
0^
0j
#1320009
1"
1.
1=
1I
1^
1g
1j
1u
#1325009
0"
0=
0^
0j
#1330009
1"
0-
0.
b00000111 8
1=
0H
0I
b00000111 S
b00000111 Y
1^
b00000111 a
0g
b00 h
1j
0t
0u
#1335009
0"
0=
0^
0j
#1340009
1"
1'
1+
b00000000000000000000000000000100 /
11
1=
1B
1F
b00000000000000000000000000000100 J
1L
1^
1j
1m
1q
1w
b00000000000000000000000000000100 y
#1345009
0"
0=
0^
0j
#1350009
1"
01
02
b00000000000000000000000000000111 3
15
1=
0L
0M
b00000000000000000000000000000111 N
1P
1^
1i
1j
0w
0x
1{
b00000000000000000000000000000111 }
#1355009
0"
0=
0^
0j
#1360009
1"
16
1=
1Q
1^
1j
1|
#1365009
0"
0=
0^
0j
#1370009
1"
05
06
1=
0P
0Q
1^
0i
1j
0{
0|
#1375009
0"
0=
0^
0j
#1380009
1"
12
1=
1M
1^
1j
1x
#1380010
0#
b00000000000000000000000000000000 $
b00000000000000000000000000000000 (
b0000 )
b00000000000000000000000000000000 /
0>
b00000000000000000000000000000000 ?
b00000000000000000000000000000000 C
b0000 D
b00000000000000000000000000000000 J
0_
0k
b00000000000000000000000000000000 n
b00000000000000000000000000000000 r
b0000 s
b00000000000000000000000000000000 y
#1385010
0"
0=
0^
0j
#1390010
1"
0'
0+
02
b00000000000000000000000000000000 3
b00000001 8
1=
0B
0F
0M
b00000000000000000000000000000000 N
b00000001 S
b00000001 Y
1^
b00000001 a
b00000 e
b00000000000000000000000000000000 f
1j
0m
0q
0x
b00000000000000000000000000000000 }
#1395010
0"
0=
0^
0j
#1400010
1"
1#
1=
1>
1^
1_
1j
1k
#1405010
0"
0=
0^
0j
#1410010
1"
1'
1+
12
1=
1B
1F
1M
1^
1j
1m
1q
1x
#1415010
0"
0=
0^
0j
#1420010
1"
b00000000000000000000000000000011 (
b1111 )
1*
1=
b00000000000000000000000000000011 C
b1111 D
1E
1^
1j
1p
b00000000000000000000000000000011 r
b1111 s
#1425010
0"
0=
0^
0j
#1430010
1"
b00000000000000000000000000001000 $
1&
0*
0+
1=
b00000000000000000000000000001000 ?
1A
0E
0F
1^
b00000000000000000000000000000011 f
b10 h
1j
1l
b00000000000000000000000000001000 n
0p
0q
#1435010
0"
0=
0^
0j
#1440010
1"
0&
0'
1=
0A
0B
1^
b01000 e
b11 h
1j
0l
0m
#1445010
0"
0=
0^
0j
#1450010
1"
1-
1=
1H
1^
1j
1t
#1455010
0"
0=
0^
0j
#1460010
1"
1.
1=
1I
1^
1g
1j
1u
#1465010
0"
0=
0^
0j
#1470010
1"
0-
0.
b00000011 9
1=
0H
0I
b00000011 T
b00000011 Z
1^
b00000011 b
0g
b00 h
1j
0t
0u
#1475010
0"
0=
0^
0j
#1480010
1"
1'
1+
b00000000000000000000000000001000 /
11
1=
1B
1F
b00000000000000000000000000001000 J
1L
1^
1j
1m
1q
1w
b00000000000000000000000000001000 y
#1485010
0"
0=
0^
0j
#1490010
1"
01
02
b00000000000000000000000000000011 3
15
1=
0L
0M
b00000000000000000000000000000011 N
1P
1^
1i
1j
0w
0x
1{
b00000000000000000000000000000011 }
#1495010
0"
0=
0^
0j
#1500010
1"
16
1=
1Q
1^
1j
1|
#1505010
0"
0=
0^
0j
#1510010
1"
05
06
1=
0P
0Q
1^
0i
1j
0{
0|
#1515010
0"
0=
0^
0j
#1520010
1"
12
1=
1M
1^
1j
1x
