sim/tile_sequencer_fsm/dump.vcd
$version Generated by VerilatedVcd $end
$timescale 1ps $end
 $scope module $rootio $end
  $var wire 1 " clk $end
  $var wire 1 # rst_n $end
  $var wire 1 $ go $end
  $var wire 8 % m_tiles [7:0] $end
  $var wire 8 & n_tiles [7:0] $end
  $var wire 8 ' k_tiles [7:0] $end
  $var wire 1 ( swap $end
  $var wire 1 ) fill_weight_done $end
  $var wire 1 * fill_act_done $end
  $var wire 1 + start $end
  $var wire 1 , pass_done $end
  $var wire 1 - final_pass $end
  $var wire 1 . tile_done $end
  $var wire 1 / ts_busy $end
  $var wire 1 0 ts_done $end
  $var wire 8 1 tile_i [7:0] $end
  $var wire 8 2 tile_j [7:0] $end
  $var wire 8 3 k_tile [7:0] $end
  $var wire 1 4 fill_start $end
  $var wire 1 5 writeback_start $end
  $var wire 1 6 writeback_done $end
 $upscope $end
 $scope module tile_sequencer_fsm $end
  $var wire 1 7 clk $end
  $var wire 1 8 rst_n $end
  $var wire 1 9 go $end
  $var wire 8 : m_tiles [7:0] $end
  $var wire 8 ; n_tiles [7:0] $end
  $var wire 8 < k_tiles [7:0] $end
  $var wire 1 = swap $end
  $var wire 1 > fill_weight_done $end
  $var wire 1 ? fill_act_done $end
  $var wire 1 @ start $end
  $var wire 1 A pass_done $end
  $var wire 1 B final_pass $end
  $var wire 1 C tile_done $end
  $var wire 1 D ts_busy $end
  $var wire 1 E ts_done $end
  $var wire 8 F tile_i [7:0] $end
  $var wire 8 G tile_j [7:0] $end
  $var wire 8 H k_tile [7:0] $end
  $var wire 1 I fill_start $end
  $var wire 1 J writeback_start $end
  $var wire 1 K writeback_done $end
  $var wire 4 L state [3:0] $end
  $var wire 1 M last_tile $end
 $upscope $end
$enddefinitions $end


#0
1"
0#
0$
b00000001 %
b00000001 &
b00000001 '
0(
0)
0*
0+
0,
0-
0.
0/
00
b00000000 1
b00000000 2
b00000000 3
04
05
06
17
08
09
b00000001 :
b00000001 ;
b00000001 <
0=
0>
0?
0@
0A
0B
0C
0D
0E
b00000000 F
b00000000 G
b00000000 H
0I
0J
0K
b0000 L
0M
#5000
0"
07
#10000
1"
1#
17
18
#15000
0"
07
#20000
1"
17
#20001
0#
08
#25001
0"
07
#30001
1"
17
#35001
0"
07
#40001
1"
1#
17
18
#45001
0"
07
#50001
1"
1$
17
19
#55001
0"
07
#60001
1"
1/
14
17
1D
1I
b0001 L
#65001
0"
0$
07
09
#70001
1"
1)
1*
04
17
1>
1?
0I
#75001
0"
07
#80001
1"
17
b0010 L
#85001
0"
07
#90001
1"
1(
17
1=
b0011 L
#95001
0"
07
#100001
1"
0(
0)
0*
1+
1-
17
0=
0>
0?
1@
1B
b0100 L
#105001
0"
07
#110001
1"
0+
17
0@
#115001
0"
07
#120001
1"
1,
17
1A
#125001
0"
07
#130001
1"
0,
1.
17
0A
1C
b0101 L
#135001
0"
07
#140001
1"
0-
0.
17
0B
0C
b0110 L
#145001
0"
07
#150001
1"
15
17
1J
b0111 L
1M
#155001
0"
07
#160001
1"
05
17
0J
#165001
0"
07
#170001
1"
16
17
1K
#175001
0"
07
#180001
1"
0/
10
06
17
0D
1E
0K
b0000 L
#185001
0"
07
#190001
1"
00
17
0E
#190002
0#
08
#195002
0"
07
#200002
1"
17
0M
#205002
0"
07
#210002
1"
1#
17
18
#215002
0"
07
#220002
1"
1$
b00000011 '
17
19
b00000011 <
#225002
0"
07
#230002
1"
0$
1/
14
17
09
1D
1I
b0001 L
#235002
0"
07
#240002
1"
1)
1*
04
17
1>
1?
0I
#245002
0"
07
#250002
1"
17
b0010 L
#255002
0"
07
#260002
1"
1(
17
1=
b0011 L
#265002
0"
07
#270002
1"
0(
0)
0*
1+
17
0=
0>
0?
1@
b0100 L
#275002
0"
07
#280002
1"
0+
17
0@
#285002
0"
07
#290002
1"
1,
17
1A
#295002
0"
07
#300002
1"
0,
b00000001 3
14
17
0A
b00000001 H
1I
b0001 L
#305002
0"
07
#310002
1"
1)
1*
04
17
1>
1?
0I
#315002
0"
07
#320002
1"
17
b0010 L
#325002
0"
07
#330002
1"
1(
17
1=
b0011 L
#335002
0"
07
#340002
1"
0(
0)
0*
1+
17
0=
0>
0?
1@
b0100 L
#345002
0"
07
#350002
1"
0+
17
0@
#355002
0"
07
#360002
1"
1,
17
1A
#365002
0"
07
#370002
1"
0,
b00000010 3
14
17
0A
b00000010 H
1I
b0001 L
#375002
0"
07
#380002
1"
1)
1*
04
17
1>
1?
0I
#385002
0"
07
#390002
1"
17
b0010 L
#395002
0"
07
#400002
1"
1(
17
1=
b0011 L
#405002
0"
07
#410002
1"
0(
0)
0*
1+
1-
17
0=
0>
0?
1@
1B
b0100 L
#415002
0"
07
#420002
1"
0+
17
0@
#425002
0"
07
#430002
1"
1,
17
1A
#435002
0"
07
#440002
1"
0,
1.
17
0A
1C
b0101 L
#445002
0"
07
#450002
1"
0-
0.
17
0B
0C
b0110 L
#455002
0"
07
#460002
1"
b00000000 3
15
17
b00000000 H
1J
b0111 L
1M
#465002
0"
07
#470002
1"
05
17
0J
#475002
0"
07
#480002
1"
16
17
1K
#485002
0"
07
#490002
1"
0/
10
06
17
0D
1E
0K
b0000 L
#495002
0"
07
#500002
1"
00
17
0E
#500003
0#
b00000001 '
08
b00000001 <
#505003
0"
07
#510003
1"
17
0M
#515003
0"
07
#520003
1"
1#
17
18
#525003
0"
07
#530003
1"
1$
b00000011 &
17
19
b00000011 ;
#535003
0"
07
#540003
1"
0$
1/
14
17
09
1D
1I
b0001 L
#545003
0"
07
#550003
1"
1)
1*
04
17
1>
1?
0I
#555003
0"
07
#560003
1"
17
b0010 L
#565003
0"
07
#570003
1"
1(
17
1=
b0011 L
#575003
0"
07
#580003
1"
0(
0)
0*
1+
1-
17
0=
0>
0?
1@
1B
b0100 L
#585003
0"
07
#590003
1"
0+
17
0@
#595003
0"
07
#600003
1"
1,
17
1A
#605003
0"
07
#610003
1"
0,
1.
17
0A
1C
b0101 L
#615003
0"
07
#620003
1"
0-
0.
17
0B
0C
b0110 L
#625003
0"
07
#630003
1"
b00000001 2
14
15
17
b00000001 G
1I
1J
b0111 L
#635003
0"
07
#640003
1"
1)
1*
04
05
17
1>
1?
0I
0J
#645003
0"
07
#650003
1"
16
17
1K
#655003
0"
07
#660003
1"
06
17
0K
b0001 L
#665003
0"
07
#670003
1"
17
b0010 L
#675003
0"
07
#680003
1"
1(
17
1=
b0011 L
#685003
0"
07
#690003
1"
0(
0)
0*
1+
1-
17
0=
0>
0?
1@
1B
b0100 L
#695003
0"
07
#700003
1"
0+
17
0@
#705003
0"
07
#710003
1"
1,
17
1A
#715003
0"
07
#720003
1"
0,
1.
17
0A
1C
b0101 L
#725003
0"
07
#730003
1"
0-
0.
17
0B
0C
b0110 L
#735003
0"
07
#740003
1"
b00000010 2
14
15
17
b00000010 G
1I
1J
b0111 L
#745003
0"
07
#750003
1"
1)
1*
04
05
17
1>
1?
0I
0J
#755003
0"
07
#760003
1"
16
17
1K
#765003
0"
07
#770003
1"
06
17
0K
b0001 L
#775003
0"
07
#780003
1"
17
b0010 L
#785003
0"
07
#790003
1"
1(
17
1=
b0011 L
#795003
0"
07
#800003
1"
0(
0)
0*
1+
1-
17
0=
0>
0?
1@
1B
b0100 L
#805003
0"
07
#810003
1"
0+
17
0@
#815003
0"
07
#820003
1"
1,
17
1A
#825003
0"
07
#830003
1"
0,
1.
17
0A
1C
b0101 L
#835003
0"
07
#840003
1"
0-
0.
17
0B
0C
b0110 L
#845003
0"
07
#850003
1"
b00000000 2
15
17
b00000000 G
1J
b0111 L
1M
#855003
0"
07
#860003
1"
05
17
0J
#865003
0"
07
#870003
1"
16
17
1K
#875003
0"
07
#880003
1"
0/
10
06
17
0D
1E
0K
b0000 L
#885003
0"
07
#890003
1"
00
17
0E
#890004
0#
b00000001 &
08
b00000001 ;
#895004
0"
07
#900004
1"
17
0M
#905004
0"
07
#910004
1"
1#
17
18
#915004
0"
07
#920004
1"
1$
b00000010 %
b00000010 &
17
19
b00000010 :
b00000010 ;
#925004
0"
07
#930004
1"
0$
1/
14
17
09
1D
1I
b0001 L
#935004
0"
07
#940004
1"
1)
1*
04
17
1>
1?
0I
#945004
0"
07
#950004
1"
17
b0010 L
#955004
0"
07
#960004
1"
1(
17
1=
b0011 L
#965004
0"
07
#970004
1"
0(
0)
0*
1+
1-
17
0=
0>
0?
1@
1B
b0100 L
#975004
0"
07
#980004
1"
0+
17
0@
#985004
0"
07
#990004
1"
1,
17
1A
#995004
0"
07
#1000004
1"
0,
1.
17
0A
1C
b0101 L
#1005004
0"
07
#1010004
1"
0-
0.
17
0B
0C
b0110 L
#1015004
0"
07
#1020004
1"
b00000001 2
14
15
17
b00000001 G
1I
1J
b0111 L
#1025004
0"
07
#1030004
1"
1)
1*
04
05
17
1>
1?
0I
0J
#1035004
0"
07
#1040004
1"
16
17
1K
#1045004
0"
07
#1050004
1"
06
17
0K
b0001 L
#1055004
0"
07
#1060004
1"
17
b0010 L
#1065004
0"
07
#1070004
1"
1(
17
1=
b0011 L
#1075004
0"
07
#1080004
1"
0(
0)
0*
1+
1-
17
0=
0>
0?
1@
1B
b0100 L
#1085004
0"
07
#1090004
1"
0+
17
0@
#1095004
0"
07
#1100004
1"
1,
17
1A
#1105004
0"
07
#1110004
1"
0,
1.
17
0A
1C
b0101 L
#1115004
0"
07
#1120004
1"
0-
0.
17
0B
0C
b0110 L
#1125004
0"
07
#1130004
1"
b00000001 1
b00000000 2
14
15
17
b00000001 F
b00000000 G
1I
1J
b0111 L
#1135004
0"
07
#1140004
1"
1)
1*
04
05
17
1>
1?
0I
0J
#1145004
0"
07
#1150004
1"
16
17
1K
#1155004
0"
07
#1160004
1"
06
17
0K
b0001 L
#1165004
0"
07
#1170004
1"
17
b0010 L
#1175004
0"
07
#1180004
1"
1(
17
1=
b0011 L
#1185004
0"
07
#1190004
1"
0(
0)
0*
1+
1-
17
0=
0>
0?
1@
1B
b0100 L
#1195004
0"
07
#1200004
1"
0+
17
0@
#1205004
0"
07
#1210004
1"
1,
17
1A
#1215004
0"
07
#1220004
1"
0,
1.
17
0A
1C
b0101 L
#1225004
0"
07
#1230004
1"
0-
0.
17
0B
0C
b0110 L
#1235004
0"
07
#1240004
1"
b00000001 2
14
15
17
b00000001 G
1I
1J
b0111 L
#1245004
0"
07
#1250004
1"
1)
1*
04
05
17
1>
1?
0I
0J
#1255004
0"
07
#1260004
1"
16
17
1K
#1265004
0"
07
#1270004
1"
06
17
0K
b0001 L
#1275004
0"
07
#1280004
1"
17
b0010 L
#1285004
0"
07
#1290004
1"
1(
17
1=
b0011 L
#1295004
0"
07
#1300004
1"
0(
0)
0*
1+
1-
17
0=
0>
0?
1@
1B
b0100 L
#1305004
0"
07
#1310004
1"
0+
17
0@
#1315004
0"
07
#1320004
1"
1,
17
1A
#1325004
0"
07
#1330004
1"
0,
1.
17
0A
1C
b0101 L
#1335004
0"
07
#1340004
1"
0-
0.
17
0B
0C
b0110 L
#1345004
0"
07
#1350004
1"
b00000000 2
15
17
b00000000 G
1J
b0111 L
1M
#1355004
0"
07
#1360004
1"
05
17
0J
#1365004
0"
07
#1370004
1"
16
17
1K
#1375004
0"
07
#1380004
1"
0/
10
06
17
0D
1E
0K
b0000 L
#1385004
0"
07
#1390004
1"
00
17
0E
#1390005
0#
b00000001 %
b00000001 &
08
b00000001 :
b00000001 ;
#1395005
0"
07
#1400005
1"
b00000000 1
17
b00000000 F
0M
#1405005
0"
07
#1410005
1"
1#
17
18
#1415005
0"
07
#1420005
1"
1$
b00000100 '
17
19
b00000100 <
#1425005
0"
07
#1430005
1"
0$
1/
14
17
09
1D
1I
b0001 L
#1435005
0"
07
#1440005
1"
1)
1*
04
17
1>
1?
0I
#1445005
0"
07
#1450005
1"
17
b0010 L
#1455005
0"
07
#1460005
1"
1(
17
1=
b0011 L
#1465005
0"
07
#1470005
1"
0(
0)
0*
1+
17
0=
0>
0?
1@
b0100 L
#1475005
0"
07
#1480005
1"
0+
17
0@
#1485005
0"
07
#1490005
1"
1,
17
1A
#1495005
0"
07
#1500005
1"
0,
b00000001 3
14
17
0A
b00000001 H
1I
b0001 L
#1505005
0"
07
#1510005
1"
1)
1*
04
17
1>
1?
0I
#1515005
0"
07
#1520005
1"
17
b0010 L
#1525005
0"
07
#1530005
1"
1(
17
1=
b0011 L
#1535005
0"
07
#1540005
1"
0(
0)
0*
1+
17
0=
0>
0?
1@
b0100 L
#1545005
0"
07
#1550005
1"
0+
17
0@
#1555005
0"
07
#1560005
1"
1,
17
1A
#1565005
0"
07
#1570005
1"
0,
b00000010 3
14
17
0A
b00000010 H
1I
b0001 L
#1575005
0"
07
#1580005
1"
1)
1*
04
17
1>
1?
0I
#1585005
0"
07
#1590005
1"
17
b0010 L
#1595005
0"
07
#1600005
1"
1(
17
1=
b0011 L
#1605005
0"
07
#1610005
1"
0(
0)
0*
1+
17
0=
0>
0?
1@
b0100 L
#1615005
0"
07
#1620005
1"
0+
17
0@
#1625005
0"
07
#1630005
1"
1,
17
1A
#1635005
0"
07
#1640005
1"
0,
b00000011 3
14
17
0A
b00000011 H
1I
b0001 L
#1645005
0"
07
#1650005
1"
1)
1*
04
17
1>
1?
0I
#1655005
0"
07
#1660005
1"
17
b0010 L
#1665005
0"
07
#1670005
1"
1(
17
1=
b0011 L
#1675005
0"
07
#1680005
1"
0(
0)
0*
1+
1-
17
0=
0>
0?
1@
1B
b0100 L
#1685005
0"
07
#1690005
1"
0+
17
0@
#1695005
0"
07
#1700005
1"
1,
17
1A
#1705005
0"
07
#1710005
1"
0,
1.
17
0A
1C
b0101 L
#1715005
0"
07
#1720005
1"
0-
0.
17
0B
0C
b0110 L
#1725005
0"
07
#1730005
1"
b00000000 3
15
17
b00000000 H
1J
b0111 L
1M
#1735005
0"
07
#1740005
1"
05
17
0J
#1745005
0"
07
#1750005
1"
16
17
1K
#1755005
0"
07
#1760005
1"
0/
10
06
17
0D
1E
0K
b0000 L
#1765005
0"
07
#1770005
1"
00
17
0E
